verilog/exe copy/wave.vcd
$date
	Mon Mar  8 15:01:29 2021
$end
$version
	Icarus Verilog
$end
$timescale
	1s
$end
$scope module IP2_TEST $end
$scope module ip2_0 $end
$var wire 1 ! BANKI $end
$var wire 1 " CLK $end
$var wire 128 # DI [127:0] $end
$var wire 1 $ PURGE $end
$var wire 1 % RCEBI $end
$var wire 1 & RSTL $end
$var wire 14 ' WADDRI [13:0] $end
$var wire 1 ( WCEBI $end
$var wire 1 ) WCEBX $end
$var wire 1 * WBUF_SWITCH $end
$var wire 1 + WBUF_PURGE $end
$var wire 6 , WBUF_EN_CTRL [5:0] $end
$var wire 1 - WBUF_EN $end
$var wire 1 . WBUF_ALL_EN $end
$var wire 16 / WADDRX [15:0] $end
$var wire 1 0 SHIFT_MODE $end
$var wire 1 1 RESULT_REQ $end
$var wire 1 2 RESULT_PURGE $end
$var wire 1 3 REQW $end
$var wire 1 4 RCEBX0 $end
$var wire 1 5 RCEBX $end
$var wire 1 6 RCEBW $end
$var wire 16 7 RADDRX [15:0] $end
$var wire 16 8 RADDRW [15:0] $end
$var wire 14 9 RADDRI [13:0] $end
$var wire 128 : QI [127:0] $end
$var wire 1 ; O_COMPARE_SWITCH $end
$var wire 1 < O_COMPARE_MODE $end
$var wire 1 = O_COMPARE_EN $end
$var wire 6 > OUTPUT_EN_CTRL [5:0] $end
$var wire 1 ? OUTPUT_EN $end
$var wire 4 @ OLSB [3:0] $end
$var wire 2 A NL_SEL [1:0] $end
$var wire 1 B NL_EN $end
$var wire 1 C MAC_EN $end
$var wire 1 D I_COMPARE_SWITCH $end
$var wire 1 E I_COMPARE_REGEN $end
$var wire 1 F I_COMPARE_MODE $end
$var wire 1 G I_COMPARE_EN $end
$var wire 1 H FEEDBACK_MODE $end
$var wire 1 I FC_WEIGHT_EN $end
$var wire 1 J CONV_FC_MODE $end
$var wire 1 K CONF_EN $end
$var wire 1 L CAL_MODE $end
$var wire 1 M BANKX $end
$var wire 1 N BANKW $end
$scope module memi_0 $end
$var wire 1 ! BANK $end
$var wire 1 " CLK $end
$var wire 128 O DW [127:0] $end
$var wire 1 % RCEB $end
$var wire 14 P WA [13:0] $end
$var wire 1 ( WCEB $end
$var wire 1 Q we1b $end
$var wire 1 R we0b $end
$var wire 128 S q1 [127:0] $end
$var wire 128 T q0 [127:0] $end
$var wire 1 U ce1b $end
$var wire 1 V ce0b $end
$var wire 13 W adrs1 [12:0] $end
$var wire 13 X adrs0 [12:0] $end
$var wire 14 Y RA [13:0] $end
$var wire 128 Z QW [127:0] $end
$var reg 1 [ bnk $end
$scope module bank0_ram0 $end
$var wire 13 \ A [12:0] $end
$var wire 13 ] AM [12:0] $end
$var wire 1 ^ AWT $end
$var wire 1 _ BIST $end
$var wire 1 ` BWEB $end
$var wire 1 a BWEBM $end
$var wire 1 V CEB $end
$var wire 1 b CEBM $end
$var wire 1 " CLK $end
$var wire 128 c D [127:0] $end
$var wire 128 d DM [127:0] $end
$var wire 1 e PD $end
$var wire 1 R WEB $end
$var wire 1 f WEBM $end
$var reg 128 g Q [127:0] $end
$upscope $end
$scope module bank0_ram1 $end
$var wire 13 h A [12:0] $end
$var wire 13 i AM [12:0] $end
$var wire 1 j AWT $end
$var wire 1 k BIST $end
$var wire 1 l BWEB $end
$var wire 1 m BWEBM $end
$var wire 1 U CEB $end
$var wire 1 n CEBM $end
$var wire 1 " CLK $end
$var wire 128 o D [127:0] $end
$var wire 128 p DM [127:0] $end
$var wire 1 q PD $end
$var wire 1 Q WEB $end
$var wire 1 r WEBM $end
$var reg 128 s Q [127:0] $end
$upscope $end
$upscope $end
$scope module sequencer_0 $end
$var wire 1 " CLK $end
$var wire 1 $ PURGE $end
$var wire 128 t QI [127:0] $end
$var wire 1 % RCEBI $end
$var wire 1 & RSTL $end
$var wire 1 u module_busy $end
$var wire 1 v module_en $end
$var wire 16 w raddrw [15:0] $end
$var wire 16 x raddrx [15:0] $end
$var wire 16 y waddrx [15:0] $end
$var wire 1 z wbuf_busy $end
$var wire 1 { pc_change $end
$var wire 1 | output_busy $end
$var wire 1 } cal_busy $end
$var wire 1 ) WCEBX $end
$var wire 1 * WBUF_SWITCH $end
$var wire 1 + WBUF_PURGE $end
$var wire 6 ~ WBUF_EN_CTRL [5:0] $end
$var wire 1 - WBUF_EN $end
$var wire 1 . WBUF_ALL_EN $end
$var wire 16 !" WADDRX [15:0] $end
$var wire 1 0 SHIFT_MODE $end
$var wire 1 1 RESULT_REQ $end
$var wire 1 2 RESULT_PURGE $end
$var wire 1 "" REQX $end
$var wire 1 3 REQW $end
$var wire 1 4 RCEBX0 $end
$var wire 1 5 RCEBX $end
$var wire 1 6 RCEBW $end
$var wire 16 #" RADDRX [15:0] $end
$var wire 16 $" RADDRW [15:0] $end
$var wire 14 %" RADDRI [13:0] $end
$var wire 1 ; O_COMPARE_SWITCH $end
$var wire 1 < O_COMPARE_MODE $end
$var wire 1 = O_COMPARE_EN $end
$var wire 6 &" OUTPUT_EN_CTRL [5:0] $end
$var wire 1 ? OUTPUT_EN $end
$var wire 4 '" OLSB [3:0] $end
$var wire 2 (" NL_SEL [1:0] $end
$var wire 1 B NL_EN $end
$var wire 1 C MAC_EN $end
$var wire 1 D I_COMPARE_SWITCH $end
$var wire 1 E I_COMPARE_REGEN $end
$var wire 1 F I_COMPARE_MODE $end
$var wire 1 G I_COMPARE_EN $end
$var wire 1 H FEEDBACK_MODE $end
$var wire 1 I FC_WEIGHT_EN $end
$var wire 1 J CONV_FC_MODE $end
$var wire 1 K CONF_EN $end
$var wire 1 L CAL_MODE $end
$var wire 1 M BANKX $end
$var wire 1 N BANKW $end
$var reg 8 )" counter1 [7:0] $end
$var reg 8 *" counter2 [7:0] $end
$var reg 8 +" counter3 [7:0] $end
$var reg 8 ," counter4 [7:0] $end
$var reg 16 -" delay_pc [15:0] $end
$var reg 16 ." pc [15:0] $end
$var reg 256 /" qi_latch [255:0] $end
$var reg 16 0" reg_raddrw [15:0] $end
$var reg 16 1" reg_raddrx [15:0] $end
$var reg 16 2" reg_waddrx [15:0] $end
$scope module cal_0 $end
$var wire 1 } CAL_BUSY $end
$var wire 1 " CLK $end
$var wire 1 3" CONV_CAL $end
$var wire 8 4" COUNTER0 [7:0] $end
$var wire 1 5" FC_CAL $end
$var wire 16 6" RADDRW_I [15:0] $end
$var wire 1 & RSTL $end
$var wire 1 u module_busy $end
$var wire 1 I WEIGHT_EN $end
$var wire 1 7" RCEBW_FC $end
$var wire 1 8" RCEBW_CONV $end
$var wire 1 6 RCEBW $end
$var wire 16 9" RADDRW_FC [15:0] $end
$var wire 16 :" RADDRW_CONV [15:0] $end
$var wire 16 ;" RADDRW [15:0] $end
$var wire 1 <" NL_EN_FC $end
$var wire 1 =" NL_EN_CONV $end
$var wire 1 B NL_EN $end
$var wire 1 >" MAC_EN_FC $end
$var wire 1 ?" MAC_EN_CONV $end
$var wire 1 C MAC_EN $end
$var wire 1 @" FC_BUSY $end
$var wire 1 A" COUNTER0_O $end
$var wire 1 B" CONV_BUSY $end
$var wire 1 L CAL_MODE $end
$scope module conv_cal_0 $end
$var wire 1 " CLK $end
$var wire 1 3" CONV_CAL $end
$var wire 8 C" COUNTER0 [7:0] $end
$var wire 16 D" RADDRW_I [15:0] $end
$var wire 1 & RSTL $end
$var wire 1 u module_busy $end
$var wire 1 E" start $end
$var wire 1 8" RCEBW $end
$var wire 16 F" RADDRW [15:0] $end
$var wire 1 =" NL_EN $end
$var wire 1 ?" MAC_EN $end
$var wire 1 A" COUNTER0_O $end
$var wire 1 B" CONV_BUSY $end
$var reg 3 G" cnt [2:0] $end
$var reg 8 H" counter0 [7:0] $end
$var reg 1 ?" reg_macen $end
$var reg 1 =" reg_nlen $end
$var reg 16 I" reg_raddrw [15:0] $end
$upscope $end
$scope module fc_cal_0 $end
$var wire 1 L CAL_MODE $end
$var wire 1 " CLK $end
$var wire 8 J" COUNTER0 [7:0] $end
$var wire 1 5" FC_CAL $end
$var wire 16 K" RADDRW_I [15:0] $end
$var wire 1 & RSTL $end
$var wire 1 I WEIGHT_EN $end
$var wire 1 u module_busy $end
$var wire 1 L" start $end
$var wire 1 7" RCEBW $end
$var wire 16 M" RADDRW [15:0] $end
$var wire 1 <" NL_EN $end
$var wire 1 >" MAC_EN $end
$var wire 1 @" FC_BUSY $end
$var reg 4 N" cnt [3:0] $end
$var reg 8 O" counter0 [7:0] $end
$var reg 1 P" reg_calmode $end
$var reg 1 >" reg_macen $end
$var reg 1 <" reg_nlen $end
$var reg 16 Q" reg_raddrw [15:0] $end
$var reg 1 7" reg_rcebw $end
$var reg 1 R" reg_weighten $end
$upscope $end
$upscope $end
$scope module output_send_0 $end
$var wire 1 " CLK $end
$var wire 8 S" COUNTER0 [7:0] $end
$var wire 1 | OUTPUT_BUSY $end
$var wire 6 T" OUTPUT_EN_CTRL_I [5:0] $end
$var wire 1 U" OUTPUT_SEND $end
$var wire 1 V" OUTPUT_SEND_POOL $end
$var wire 1 W" O_COMPARE_REGEN $end
$var wire 1 & RSTL $end
$var wire 16 X" WADDRX_I [15:0] $end
$var wire 1 u module_busy $end
$var wire 1 Y" WCEBX_POOL $end
$var wire 1 Z" WCEBX_NO $end
$var wire 1 ) WCEBX $end
$var wire 16 [" WADDRX_POOL [15:0] $end
$var wire 16 \" WADDRX_NO [15:0] $end
$var wire 16 ]" WADDRX [15:0] $end
$var wire 1 ; O_COMPARE_SWITCH $end
$var wire 1 < O_COMPARE_MODE $end
$var wire 1 = O_COMPARE_EN $end
$var wire 1 ^" OUTPUT_POOL_BUSY $end
$var wire 1 _" OUTPUT_NO_BUSY $end
$var wire 1 `" OUTPUT_EN_POOL $end
$var wire 1 a" OUTPUT_EN_NO $end
$var wire 6 b" OUTPUT_EN_CTRL_POOL [5:0] $end
$var wire 6 c" OUTPUT_EN_CTRL_NO [5:0] $end
$var wire 6 d" OUTPUT_EN_CTRL [5:0] $end
$var wire 1 ? OUTPUT_EN $end
$var wire 1 e" COUNTER0_O $end
$scope module output_send_nopool_0 $end
$var wire 1 " CLK $end
$var wire 8 f" COUNTER0 [7:0] $end
$var wire 6 g" OUTPUT_EN_CTRL_I [5:0] $end
$var wire 1 U" OUTPUT_SEND $end
$var wire 1 & RSTL $end
$var wire 16 h" WADDRX_I [15:0] $end
$var wire 1 u module_busy $end
$var wire 1 i" start $end
$var wire 1 Z" WCEBX $end
$var wire 16 j" WADDRX [15:0] $end
$var wire 6 k" OUTPUT_EN_CTRL [5:0] $end
$var wire 1 a" OUTPUT_EN $end
$var wire 1 _" OUTPUT_BUSY $end
$var wire 1 e" COUNTER0_O $end
$var reg 3 l" cnt [2:0] $end
$var reg 8 m" counter0 [7:0] $end
$var reg 6 n" reg_outputenctrl [5:0] $end
$var reg 16 o" reg_waddrx [15:0] $end
$upscope $end
$scope module output_send_pool_0 $end
$var wire 1 " CLK $end
$var wire 8 p" COUNTER0 [7:0] $end
$var wire 6 q" OUTPUT_EN_CTRL_I [5:0] $end
$var wire 1 V" OUTPUT_SEND_POOL $end
$var wire 1 = O_COMPARE_EN $end
$var wire 1 ; O_COMPARE_SWITCH $end
$var wire 1 & RSTL $end
$var wire 16 r" WADDRX_I [15:0] $end
$var wire 1 u module_busy $end
$var wire 1 s" start $end
$var wire 1 Y" WCEBX $end
$var wire 16 t" WADDRX [15:0] $end
$var wire 1 < O_COMPARE_MODE $end
$var wire 1 ^" OUTPUT_POOL_BUSY $end
$var wire 6 u" OUTPUT_EN_CTRL [5:0] $end
$var wire 1 `" OUTPUT_EN $end
$var reg 5 v" cnt [4:0] $end
$var reg 8 w" counter0 [7:0] $end
$var reg 1 x" reg_c_en $end
$var reg 1 y" reg_c_switch $end
$var reg 1 `" reg_outputen $end
$var reg 6 z" reg_outputenctrl [5:0] $end
$var reg 16 {" reg_waddrx [15:0] $end
$var reg 1 Y" reg_wcebx $end
$upscope $end
$upscope $end
$scope module wbuf_send_0 $end
$var wire 1 " CLK $end
$var wire 8 |" COUNTER0 [7:0] $end
$var wire 16 }" RADDRX_I [15:0] $end
$var wire 1 & RSTL $end
$var wire 1 z WBUF_BUSY $end
$var wire 6 ~" WBUF_EN_CTRL_I [5:0] $end
$var wire 1 !# WBUF_SEND $end
$var wire 1 "# WBUF_SEND_POOL $end
$var wire 1 u module_busy $end
$var wire 1 ## WBUF_POOL_BUSY $end
$var wire 1 $# WBUF_NO_BUSY $end
$var wire 1 %# WBUF_EN_POOL $end
$var wire 1 &# WBUF_EN_NO $end
$var wire 6 '# WBUF_EN_CTRL_POOL [5:0] $end
$var wire 6 (# WBUF_EN_CTRL_NO [5:0] $end
$var wire 6 )# WBUF_EN_CTRL [5:0] $end
$var wire 1 - WBUF_EN $end
$var wire 1 *# RCEBX_POOL $end
$var wire 1 +# RCEBX_NO $end
$var wire 1 5 RCEBX $end
$var wire 16 ,# RADDRX_POOL [15:0] $end
$var wire 16 -# RADDRX_NO [15:0] $end
$var wire 16 .# RADDRX [15:0] $end
$var wire 1 D I_COMPARE_SWITCH $end
$var wire 1 E I_COMPARE_REGEN $end
$var wire 1 F I_COMPARE_MODE $end
$var wire 1 G I_COMPARE_EN $end
$var wire 1 /# COUNTER0_O $end
$scope module wbuf_send_nopool_0 $end
$var wire 1 " CLK $end
$var wire 8 0# COUNTER0 [7:0] $end
$var wire 16 1# RADDRX_I [15:0] $end
$var wire 1 & RSTL $end
$var wire 6 2# WBUF_EN_CTRL_I [5:0] $end
$var wire 1 !# WBUF_SEND $end
$var wire 1 u module_busy $end
$var wire 1 3# start $end
$var wire 6 4# WBUF_EN_CTRL [5:0] $end
$var wire 1 &# WBUF_EN $end
$var wire 1 $# WBUF_BUSY $end
$var wire 1 +# RCEBX $end
$var wire 16 5# RADDRX [15:0] $end
$var wire 1 /# COUNTER0_O $end
$var reg 3 6# cnt [2:0] $end
$var reg 8 7# counter0 [7:0] $end
$var reg 16 8# reg_raddrx [15:0] $end
$var reg 6 9# reg_wbufenctrl [5:0] $end
$upscope $end
$scope module wbuf_send_pool_0 $end
$var wire 1 " CLK $end
$var wire 8 :# COUNTER0 [7:0] $end
$var wire 1 G I_COMPARE_EN $end
$var wire 1 E I_COMPARE_REGEN $end
$var wire 1 D I_COMPARE_SWITCH $end
$var wire 16 ;# RADDRX_I [15:0] $end
$var wire 1 & RSTL $end
$var wire 6 <# WBUF_EN_CTRL_I [5:0] $end
$var wire 1 "# WBUF_SEND_POOL $end
$var wire 1 u module_busy $end
$var wire 1 =# start $end
$var wire 1 ## WBUF_POOL_BUSY $end
$var wire 6 ># WBUF_EN_CTRL [5:0] $end
$var wire 1 %# WBUF_EN $end
$var wire 1 *# RCEBX $end
$var wire 16 ?# RADDRX [15:0] $end
$var wire 1 F I_COMPARE_MODE $end
$var reg 4 @# cnt [3:0] $end
$var reg 8 A# counter0 [7:0] $end
$var reg 1 B# reg_c_en $end
$var reg 1 C# reg_c_regen $end
$var reg 1 D# reg_c_switch $end
$var reg 16 E# reg_raddrx [15:0] $end
$var reg 1 *# reg_rcebx $end
$var reg 1 %# reg_wbufen $end
$var reg 6 F# reg_wbufenctrl [5:0] $end
$upscope $end
$upscope $end
$upscope $end
$upscope $end
$upscope $end
$enddefinitions $end
#0
$dumpvars
b0 F#
b0 E#
0D#
0C#
0B#
b0 A#
b0 @#
b0 ?#
b0 >#
x=#
bx <#
b0 ;#
bx :#
b0 9#
b0 8#
b0 7#
b0 6#
b0 5#
b0 4#
x3#
bx 2#
b0 1#
bx 0#
0/#
b0 .#
b0 -#
b0 ,#
1+#
0*#
b0 )#
b0 (#
b0 '#
0&#
0%#
0$#
0##
x"#
x!#
bx ~"
b0 }"
bx |"
b0 {"
b0 z"
0y"
0x"
b0 w"
b0 v"
b0 u"
b0 t"
xs"
b0 r"
bx q"
bx p"
b0 o"
b0 n"
b0 m"
b0 l"
b0 k"
b0 j"
xi"
b0 h"
bx g"
bx f"
0e"
b0 d"
b0 c"
b0 b"
0a"
0`"
0_"
0^"
b0 ]"
b0 \"
b0 ["
1Z"
0Y"
b0 X"
zW"
xV"
xU"
bx T"
bx S"
0R"
b0 Q"
0P"
b0 O"
b0 N"
b0 M"
xL"
b0 K"
bx J"
b0 I"
b0 H"
b0 G"
b0 F"
xE"
b0 D"
bx C"
0B"
0A"
0@"
0?"
0>"
0="
0<"
b0 ;"
b0 :"
b0 9"
18"
07"
b0 6"
x5"
bx 4"
x3"
b0 2"
b0 1"
b0 0"
b0 /"
b0 ."
b0 -"
b0 ,"
b0 +"
b0 *"
b0 )"
b0 ("
b0 '"
b0 &"
b0 %"
b0 $"
b0 #"
0""
b0 !"
b0 ~
0}
0|
0{
0z
b0 y
b0 x
b0 w
xv
0u
bx t
bx s
zr
zq
bz p
b0 o
zn
zm
zl
zk
zj
bz i
b0 h
bx g
zf
ze
bz d
b0 c
zb
za
z`
z_
z^
bz ]
b0 \
0[
bx Z
b0 Y
b0 X
b0 W
0V
0U
bx T
bx S
1R
1Q
b0 P
b0 O
0N
0M
0L
0K
0J
0I
0H
0G
0F
0E
0D
0C
0B
b0 A
b0 @
0?
b0 >
0=
0<
0;
bx :
b0 9
b0 8
b0 7
06
05
04
03
02
01
00
b0 /
0.
0-
b0 ,
0+
0*
0)
0(
b0 '
0&
0%
z$
b0 #
1"
0!
$end
#5
0"
#10
0v
03#
0=#
0i"
0s"
0E"
0L"
0!#
0"#
b0 |"
b0 0#
b0 :#
b0 ~"
b0 2#
b0 <#
0U"
0V"
b0 S"
b0 f"
b0 p"
b0 T"
b0 g"
b0 q"
03"
05"
b0 4"
b0 C"
b0 J"
b100000000000000000100000000000000000000000000000000000000000000000000000000000000000000000 :
b100000000000000000100000000000000000000000000000000000000000000000000000000000000000000000 Z
b100000000000000000100000000000000000000000000000000000000000000000000000000000000000000000 t
b100000000000000000100000000000000000000000000000000000000000000000000000000000000000000000 S
b100000000000000000100000000000000000000000000000000000000000000000000000000000000000000000 s
b100000000000000000100000000000000000000000000000000000000000000000000000000000000000000000 T
b100000000000000000100000000000000000000000000000000000000000000000000000000000000000000000 g
1"
#11
1&
#15
0"
#20
b1 X
b1 \
b1 h
b1 9
b1 Y
b1 %"
1{
15
1)
1*#
1Y"
b1 ."
1"
#25
0"
#30
1v
b10 X
b10 \
b10 h
13#
1!#
b11 |"
b11 0#
b11 :#
b11 S"
b11 f"
b11 p"
b11 4"
b11 C"
b11 J"
b10 9
b10 Y
b10 %"
b100000000000000000100000000000000000000000000000010000000000000000000000110000000000000000 :
b100000000000000000100000000000000000000000000000010000000000000000000000110000000000000000 Z
b100000000000000000100000000000000000000000000000010000000000000000000000110000000000000000 t
b100000000000000000100000000000000000000000000000010000000000000000000000110000000000000000 S
b100000000000000000100000000000000000000000000000010000000000000000000000110000000000000000 s
b100000000000000000100000000000000000000000000000010000000000000000000000110000000000000000 T
b100000000000000000100000000000000000000000000000010000000000000000000000110000000000000000 g
b1 -"
b10 ."
1"
#35
0"
#40
03#
1u
1z
0E"
1$#
13"
0{
b110000000000000000100000000000000000000000000000010000000000000000000000110000000000000000 :
b110000000000000000100000000000000000000000000000010000000000000000000000110000000000000000 Z
b110000000000000000100000000000000000000000000000010000000000000000000000110000000000000000 t
1-
05
b110000000000000000100000000000000000000000000000010000000000000000000000110000000000000000 T
b110000000000000000100000000000000000000000000000010000000000000000000000110000000000000000 g
b110000000000000000100000000000000000000000000000010000000000000000000000110000000000000000 S
b110000000000000000100000000000000000000000000000010000000000000000000000110000000000000000 s
0+#
1&#
1/#
b11 7#
b100 6#
b10 -"
1"
#45
0"
#50
b1 7
b1 #"
b1 .#
b1 -#
b1 5#
b1 8#
b11 6#
1"
#55
0"
#60
b10 7
b10 #"
b10 .#
b10 6#
b10 -#
b10 5#
b10 8#
1"
#65
0"
#70
b11 7
b11 #"
b11 .#
b11 -#
b11 5#
b11 8#
b1 6#
1"
#75
0"
#80
b100 7
b100 #"
b100 .#
b0 6#
b100 -#
b100 5#
b100 8#
1"
#85
0"
#90
b1 ,
b1 ~
b1 )#
b101 7
b101 #"
b101 .#
b1 (#
b1 4#
b1 9#
b101 -#
b101 5#
b101 8#
b11 6#
b10 7#
1"
#95
0"
#100
b110 7
b110 #"
b110 .#
b10 6#
b110 -#
b110 5#
b110 8#
1"
#105
0"
#110
b111 7
b111 #"
b111 .#
b111 -#
b111 5#
b111 8#
b1 6#
1"
#115
0"
#120
b1000 7
b1000 #"
b1000 .#
b0 6#
b1000 -#
b1000 5#
b1000 8#
1"
#125
0"
#130
b10 ,
b10 ~
b10 )#
b1001 7
b1001 #"
b1001 .#
b10 (#
b10 4#
b10 9#
b1001 -#
b1001 5#
b1001 8#
b11 6#
b1 7#
1"
#135
0"
#140
b1010 7
b1010 #"
b1010 .#
b10 6#
b1010 -#
b1010 5#
b1010 8#
1"
#145
0"
#150
b1011 7
b1011 #"
b1011 .#
b1011 -#
b1011 5#
b1011 8#
b1 6#
1"
#155
0"
#160
1E"
13#
0u
0z
0$#
b1100 7
b1100 #"
b1100 .#
b0 6#
b1100 -#
b1100 5#
b1100 8#
1"
#165
0"
#170
0E"
03#
1u
b11 X
b11 \
b11 h
1}
1z
1B"
1$#
b11 9
b11 Y
b11 %"
1{
b0 ,
b0 ~
b0 )#
b0 7
b0 #"
b0 .#
b11 ."
b101 G"
08"
1A"
b11 H"
b0 (#
b0 4#
b0 9#
b0 -#
b0 5#
b0 8#
b100 6#
b11 7#
1"
#175
0"
#180
0!#
1U"
0{
b110000000000000000100000010000000000000000000000000000000000000000000000110000000000000000 :
b110000000000000000100000010000000000000000000000000000000000000000000000110000000000000000 Z
b110000000000000000100000010000000000000000000000000000000000000000000000110000000000000000 t
b1 7
b1 #"
b1 .#
b1 8
b1 $"
b1 ;"
1C
1B
b110000000000000000100000010000000000000000000000000000000000000000000000110000000000000000 T
b110000000000000000100000010000000000000000000000000000000000000000000000110000000000000000 g
b110000000000000000100000010000000000000000000000000000000000000000000000110000000000000000 S
b110000000000000000100000010000000000000000000000000000000000000000000000110000000000000000 s
b11 6#
b1 -#
b1 5#
b1 8#
b100 G"
b1 :"
b1 F"
b1 I"
1?"
1="
b11 -"
1"
#185
0"
#190
0C
b10 8
b10 $"
b10 ;"
b10 7
b10 #"
b10 .#
0?"
b10 :"
b10 F"
b10 I"
b11 G"
b10 -#
b10 5#
b10 8#
b10 6#
1"
#195
0"
#200
b11 7
b11 #"
b11 .#
b11 8
b11 $"
b11 ;"
b1 6#
b11 -#
b11 5#
b11 8#
b10 G"
b11 :"
b11 F"
b11 I"
1"
#205
0"
#210
b100 7
b100 #"
b100 .#
b1 G"
b100 -#
b100 5#
b100 8#
b0 6#
1"
#215
0"
#220
b101 7
b101 #"
b101 .#
b1 ,
b1 ~
b1 )#
b100 8
b100 $"
b100 ;"
0B
b10 7#
b11 6#
b101 -#
b101 5#
b101 8#
b1 (#
b1 4#
b1 9#
b0 G"
b100 :"
b100 F"
b100 I"
0="
1"
#225
0"
#230
1B
1C
b101 8
b101 $"
b101 ;"
b110 7
b110 #"
b110 .#
1="
1?"
b101 :"
b101 F"
b101 I"
b100 G"
b10 H"
b110 -#
b110 5#
b110 8#
b10 6#
1"
#235
0"
#240
b111 7
b111 #"
b111 .#
b110 8
b110 $"
b110 ;"
0C
b1 6#
b111 -#
b111 5#
b111 8#
b11 G"
b110 :"
b110 F"
b110 I"
0?"
1"
#245
0"
#250
b111 8
b111 $"
b111 ;"
b1000 7
b1000 #"
b1000 .#
b111 :"
b111 F"
b111 I"
b10 G"
b1000 -#
b1000 5#
b1000 8#
b0 6#
1"
#255
0"
#260
b1001 7
b1001 #"
b1001 .#
b10 ,
b10 ~
b10 )#
b1 7#
b11 6#
b1001 -#
b1001 5#
b1001 8#
b10 (#
b10 4#
b10 9#
b1 G"
1"
#265
0"
#270
0B
b1000 8
b1000 $"
b1000 ;"
b1010 7
b1010 #"
b1010 .#
0="
b1000 :"
b1000 F"
b1000 I"
b0 G"
b1010 -#
b1010 5#
b1010 8#
b10 6#
1"
#275
0"
#280
b1011 7
b1011 #"
b1011 .#
b1001 8
b1001 $"
b1001 ;"
1C
1B
b1 6#
b1011 -#
b1011 5#
b1011 8#
b1 H"
b100 G"
b1001 :"
b1001 F"
b1001 I"
1?"
1="
1"
#285
0"
#290
0z
0$#
0C
b1010 8
b1010 $"
b1010 ;"
b1100 7
b1100 #"
b1100 .#
0?"
b1010 :"
b1010 F"
b1010 I"
b11 G"
b1100 -#
b1100 5#
b1100 8#
b0 6#
1"
#295
0"
#300
0-
15
b0 7
b0 #"
b0 .#
b0 ,
b0 ~
b0 )#
b1011 8
b1011 $"
b1011 ;"
1+#
0&#
0/#
b0 7#
b1101 -#
b1101 5#
b1101 8#
b11 (#
b11 4#
b11 9#
b10 G"
b1011 :"
b1011 F"
b1011 I"
1"
#305
0"
#310
b1 G"
1"
#315
0"
#320
1E"
1i"
0u
0}
0B"
b1100 8
b1100 $"
b1100 ;"
0B
b0 G"
b1100 :"
b1100 F"
b1100 I"
0="
1"
#325
0"
#330
0E"
0i"
1u
b100 X
b100 \
b100 h
1}
1|
1B"
1_"
b100 9
b100 Y
b100 %"
1{
b0 8
b0 $"
b0 ;"
1?
0)
b100 ."
b0 :"
b0 F"
b0 I"
b101 G"
b11 H"
b100 l"
0Z"
1a"
1e"
b11 m"
1"
#335
0"
#340
03"
0{
b100000000000000000100000010000000000000000000000000000000000000000000000110000000000000000 :
b100000000000000000100000010000000000000000000000000000000000000000000000110000000000000000 Z
b100000000000000000100000010000000000000000000000000000000000000000000000110000000000000000 t
b1 /
b1 !"
b1 ]"
b1 8
b1 $"
b1 ;"
1C
1B
b100000000000000000100000010000000000000000000000000000000000000000000000110000000000000000 T
b100000000000000000100000010000000000000000000000000000000000000000000000110000000000000000 g
b100000000000000000100000010000000000000000000000000000000000000000000000110000000000000000 S
b100000000000000000100000010000000000000000000000000000000000000000000000110000000000000000 s
b11 l"
b1 \"
b1 j"
b1 o"
b100 G"
b1 :"
b1 F"
b1 I"
1?"
1="
b100 -"
1"
#345
0"
#350
0C
b10 8
b10 $"
b10 ;"
b10 /
b10 !"
b10 ]"
0?"
b10 :"
b10 F"
b10 I"
b11 G"
b10 \"
b10 j"
b10 o"
b10 l"
1"
#355
0"
#360
b11 /
b11 !"
b11 ]"
b11 8
b11 $"
b11 ;"
b1 l"
b11 \"
b11 j"
b11 o"
b10 G"
b11 :"
b11 F"
b11 I"
1"
#365
0"
#370
b100 /
b100 !"
b100 ]"
b1 G"
b100 \"
b100 j"
b100 o"
b0 l"
1"
#375
0"
#380
b101 /
b101 !"
b101 ]"
b1 >
b1 &"
b1 d"
b100 8
b100 $"
b100 ;"
0B
b10 m"
b11 l"
b101 \"
b101 j"
b101 o"
b1 c"
b1 k"
b1 n"
b0 G"
b100 :"
b100 F"
b100 I"
0="
1"
#385
0"
#390
1B
1C
b101 8
b101 $"
b101 ;"
b110 /
b110 !"
b110 ]"
1="
1?"
b101 :"
b101 F"
b101 I"
b100 G"
b10 H"
b110 \"
b110 j"
b110 o"
b10 l"
1"
#395
0"
#400
b111 /
b111 !"
b111 ]"
b110 8
b110 $"
b110 ;"
0C
b1 l"
b111 \"
b111 j"
b111 o"
b11 G"
b110 :"
b110 F"
b110 I"
0?"
1"
#405
0"
#410
b111 8
b111 $"
b111 ;"
b1000 /
b1000 !"
b1000 ]"
b111 :"
b111 F"
b111 I"
b10 G"
b1000 \"
b1000 j"
b1000 o"
b0 l"
1"
#415
0"
#420
b1001 /
b1001 !"
b1001 ]"
b10 >
b10 &"
b10 d"
b1 m"
b11 l"
b1001 \"
b1001 j"
b1001 o"
b10 c"
b10 k"
b10 n"
b1 G"
1"
#425
0"
#430
0B
b1000 8
b1000 $"
b1000 ;"
b1010 /
b1010 !"
b1010 ]"
0="
b1000 :"
b1000 F"
b1000 I"
b0 G"
b1010 \"
b1010 j"
b1010 o"
b10 l"
1"
#435
0"
#440
b1011 /
b1011 !"
b1011 ]"
b1001 8
b1001 $"
b1001 ;"
1C
1B
b1 l"
b1011 \"
b1011 j"
b1011 o"
b1 H"
b100 G"
b1001 :"
b1001 F"
b1001 I"
1?"
1="
1"
#445
0"
#450
0|
0_"
0C
b1010 8
b1010 $"
b1010 ;"
b1100 /
b1100 !"
b1100 ]"
0?"
b1010 :"
b1010 F"
b1010 I"
b11 G"
b1100 \"
b1100 j"
b1100 o"
b0 l"
1"
#455
0"
#460
b0 >
b0 &"
b0 d"
0?
1)
b0 /
b0 !"
b0 ]"
b1011 8
b1011 $"
b1011 ;"
1Z"
0a"
0e"
b0 m"
b10 G"
b1011 :"
b1011 F"
b1011 I"
1"
#465
0"
#470
b1 G"
1"
#475
0"
#480
1i"
0u
0}
0B"
b1100 8
b1100 $"
b1100 ;"
0B
b0 G"
b1100 :"
b1100 F"
b1100 I"
0="
1"
#485
0"
#490
0i"
1u
b101 X
b101 \
b101 h
1|
1_"
b101 9
b101 Y
b101 %"
1{
b0 8
b0 $"
b0 ;"
1?
0)
b101 ."
18"
0A"
b0 H"
b0 c"
b0 k"
b0 n"
b0 \"
b0 j"
b0 o"
b100 l"
0Z"
1a"
1e"
b11 m"
1"
#495
0"
