verilog/exe/sequencer_test.vcd
$date
	Thu Jan 14 17:33:56 2021
$end
$version
	Icarus Verilog
$end
$timescale
	100ps
$end
$scope module sequencer_test $end
$scope module SEQUENCER_0 $end
$var wire 1 ! BANKW $end
$var wire 1 " BANKX $end
$var wire 1 # CAL_MODE $end
$var wire 1 $ CLK $end
$var wire 1 % CONF_EN $end
$var wire 1 & CONV_FC_MODE $end
$var wire 1 ' FC_WEIGHT_EN $end
$var wire 1 ( FEEDBACK_MODE $end
$var wire 1 ) I_COMPARE_EN $end
$var wire 1 * I_COMPARE_MODE $end
$var wire 1 + I_COMPARE_REGEN $end
$var wire 1 , I_COMPARE_SWITCH $end
$var wire 1 - MAC_EN $end
$var wire 1 . MBUSYW $end
$var wire 1 / MBUSYXI $end
$var wire 1 0 MBUSYXO $end
$var wire 1 1 NL_EN $end
$var wire 2 2 NL_LOOP_SEL [1:0] $end
$var wire 2 3 NL_SEL [1:0] $end
$var wire 4 4 OLSB [3:0] $end
$var wire 1 5 OUTPUT_EN $end
$var wire 6 6 OUTPUT_EN_CTRL [5:0] $end
$var wire 1 7 O_COMPARE_EN $end
$var wire 1 8 O_COMPARE_MODE $end
$var wire 1 9 O_COMPARE_SWITCH $end
$var wire 1 : PURGE $end
$var wire 256 ; QI [255:0] $end
$var wire 16 < RADDRW [15:0] $end
$var wire 1 = RCEBI $end
$var wire 1 > RCEBW $end
$var wire 1 ? RCEBX0 $end
$var wire 1 @ REQW $end
$var wire 1 A RESULT_PURGE $end
$var wire 1 B RESULT_REQ $end
$var wire 1 C RSTL $end
$var wire 1 D SEQ_FIN $end
$var wire 1 E SEQ_LOAD_I $end
$var wire 1 F SEQ_STARTW $end
$var wire 1 G SEQ_STARTX $end
$var wire 1 H SEQ_STARTX_OUT $end
$var wire 1 I SHIFT_MODE $end
$var wire 16 J WADDRX [15:0] $end
$var wire 1 K WBUF_ALL_EN $end
$var wire 1 L WBUF_PURGE $end
$var wire 1 M WBUF_SWITCH $end
$var wire 1 N WCEBX $end
$var wire 8 O counter_end [7:0] $end
$var wire 6 P WBUF_EN_CTRL [5:0] $end
$var wire 1 Q WBUF_EN $end
$var wire 1 R RCEBX $end
$var wire 16 S RADDRX [15:0] $end
$var wire 16 T RADDRI [15:0] $end
$var reg 8 U counter1 [7:0] $end
$var reg 8 V counter2 [7:0] $end
$var reg 8 W counter3 [7:0] $end
$var reg 16 X pc [15:0] $end
$var reg 256 Y qi_latch [255:0] $end
$var reg 6 Z reg_outputenctrl [5:0] $end
$var reg 6 [ reg_outputenctrl_latch [5:0] $end
$var reg 16 \ reg_raddrw [15:0] $end
$var reg 16 ] reg_raddrw_bak [15:0] $end
$var reg 16 ^ reg_raddrw_latch [15:0] $end
$var reg 16 _ reg_raddrx [15:0] $end
$var reg 16 ` reg_raddrx_bak [15:0] $end
$var reg 16 a reg_raddrx_latch [15:0] $end
$var reg 1 b reg_switch $end
$var reg 1 c reg_switch_latch $end
$var reg 16 d reg_waddrx [15:0] $end
$var reg 16 e reg_waddrx_latch [15:0] $end
$scope module wbuf_send_0 $end
$var wire 1 $ CLK $end
$var wire 8 f COUNTER0 [7:0] $end
$var wire 8 g COUNTER_END [7:0] $end
$var wire 16 h RADDRX [15:0] $end
$var wire 1 R RCEBX $end
$var wire 1 C RSTL $end
$var wire 1 Q WBUF_EN $end
$var wire 6 i WBUF_EN_CTRL [5:0] $end
$var wire 1 j WBUF_SEND $end
$var wire 16 k raddrx [15:0] $end
$var wire 6 l wbuf_en_ctrl [5:0] $end
$var reg 3 m cnt [2:0] $end
$var reg 8 n counter0 [7:0] $end
$var reg 16 o reg_raddrx [15:0] $end
$var reg 1 p reg_rcebx $end
$var reg 1 q reg_wbufen $end
$var reg 6 r reg_wbufenctrl [5:0] $end
$upscope $end
$upscope $end
$upscope $end
$enddefinitions $end
#0
$dumpvars
b0 r
0q
1p
b0 o
b0 n
b0 m
bx l
bx k
xj
b0 i
b0 h
b0 g
bx f
b0 e
b0 d
0c
0b
b0 a
b0 `
b0 _
b0 ^
b0 ]
b0 \
b0 [
b0 Z
b0 Y
b0 X
b0 W
b0 V
b0 U
b0 T
b0 S
1R
0Q
b0 P
b0 O
zN
0M
zL
zK
bz J
zI
zH
zG
zF
zE
zD
0C
zB
zA
z@
z?
z>
0=
bz <
bx ;
0:
z9
z8
z7
bz 6
z5
bz 4
bz 3
bz 2
z1
z0
z/
z.
z-
z,
z+
z*
z)
z(
z'
z&
z%
1$
z#
z"
z!
$end
#25
0$
#50
b0 f
0j
b0 k
b0 l
b0 ;
1$
#75
0$
#100
1$
#101
1C
#125
0$
#150
b10 T
b1 X
1$
#175
0$
#200
b100 T
b10 X
b1000001 ;
1$
#225
0$
#250
b110 T
b1000001 Y
b11111111 V
b11 X
b0 ;
1$
#275
0$
#300
bx f
b1000 T
xj
bx k
bx l
b100 X
b0 Y
bx ;
1$
#325
0$
#350
b1010 T
bx Y
b101 X
1$
#375
0$
#400
b1100 T
b110 X
1$
#425
0$
#450
b1110 T
b111 X
1$
#475
0$
#500
b10000 T
b1000 X
1$
#525
0$
#550
b10010 T
b1001 X
1$
#575
0$
#600
b10100 T
b1010 X
1$
#625
0$
#650
b10110 T
b1011 X
1$
#675
0$
#700
b11000 T
b1100 X
1$
#725
0$
#750
b11010 T
b1101 X
1$
#775
0$
#800
b11100 T
b1110 X
1$
#825
0$
#850
b11110 T
b1111 X
1$
#875
0$
#900
b100000 T
b10000 X
1$
#925
0$
#950
b100010 T
b10001 X
1$
#975
0$
#1000
b100100 T
b10010 X
1$
#1025
0$
#1050
b100110 T
b10011 X
1$
#1075
0$
#1100
b101000 T
b10100 X
1$
#1125
0$
#1150
b101010 T
b10101 X
1$
#1175
0$
#1200
b101100 T
b10110 X
1$
#1225
0$
#1250
b101110 T
b10111 X
1$
#1275
0$
#1300
b110000 T
b11000 X
1$
#1325
0$
#1350
b110010 T
b11001 X
1$
#1375
0$
#1400
b110100 T
b11010 X
1$
#1425
0$
#1450
b110110 T
b11011 X
1$
#1475
0$
#1500
b111000 T
b11100 X
1$
#1525
0$
#1550
b111010 T
b11101 X
1$
#1575
0$
#1600
b111100 T
b11110 X
1$
#1625
0$
#1650
b111110 T
b11111 X
1$
#1675
0$
#1700
b1000000 T
b100000 X
1$
#1725
0$
#1750
b1000010 T
b100001 X
1$
#1775
0$
#1800
b1000100 T
b100010 X
1$
#1825
0$
#1850
b1000110 T
b100011 X
1$
#1875
0$
#1900
b1001000 T
b100100 X
1$
#1925
0$
#1950
b1001010 T
b100101 X
1$
#1975
0$
#2000
b1001100 T
b100110 X
1$
#2025
0$
#2050
b1001110 T
b100111 X
1$
#2075
0$
#2100
b1010000 T
b101000 X
1$
#2125
0$
#2150
b1010010 T
b101001 X
1$
#2175
0$
#2200
b1010100 T
b101010 X
1$
#2225
0$
#2250
b1010110 T
b101011 X
1$
#2275
0$
#2300
b1011000 T
b101100 X
1$
#2325
0$
#2350
b1011010 T
b101101 X
1$
#2375
0$
#2400
b1011100 T
b101110 X
1$
#2425
0$
#2450
b1011110 T
b101111 X
1$
#2475
0$
#2500
b1100000 T
b110000 X
1$
#2525
0$
#2550
b1100010 T
b110001 X
1$
#2575
0$
#2600
b1100100 T
b110010 X
1$
#2625
0$
#2650
b1100110 T
b110011 X
1$
#2675
0$
#2700
b1101000 T
b110100 X
1$
#2725
0$
#2750
b1101010 T
b110101 X
1$
#2775
0$
#2800
b1101100 T
b110110 X
1$
#2825
0$
#2850
b1101110 T
b110111 X
1$
#2875
0$
#2900
b1110000 T
b111000 X
1$
#2925
0$
#2950
b1110010 T
b111001 X
1$
#2975
0$
#3000
b1110100 T
b111010 X
1$
#3025
0$
#3050
b1110110 T
b111011 X
1$
#3075
0$
#3100
b1111000 T
b111100 X
1$
#3125
0$
#3150
b1111010 T
b111101 X
1$
#3175
0$
#3200
b1111100 T
b111110 X
1$
#3225
0$
#3250
b1111110 T
b111111 X
1$
#3275
0$
#3300
b10000000 T
b1000000 X
1$
#3325
0$
#3350
b10000010 T
b1000001 X
1$
#3375
0$
#3400
b10000100 T
b1000010 X
1$
#3425
0$
#3450
b10000110 T
b1000011 X
1$
#3475
0$
#3500
b10001000 T
b1000100 X
1$
#3525
0$
#3550
b10001010 T
b1000101 X
1$
#3575
0$
#3600
b10001100 T
b1000110 X
1$
#3625
0$
#3650
b10001110 T
b1000111 X
1$
#3675
0$
#3700
b10010000 T
b1001000 X
1$
#3725
0$
#3750
b10010010 T
b1001001 X
1$
#3775
0$
#3800
b10010100 T
b1001010 X
1$
#3825
0$
#3850
b10010110 T
b1001011 X
1$
#3875
0$
#3900
b10011000 T
b1001100 X
1$
#3925
0$
#3950
b10011010 T
b1001101 X
1$
#3975
0$
#4000
b10011100 T
b1001110 X
1$
#4025
0$
#4050
b10011110 T
b1001111 X
1$
#4075
0$
#4100
b10100000 T
b1010000 X
1$
#4125
0$
#4150
b10100010 T
b1010001 X
1$
#4175
0$
#4200
b10100100 T
b1010010 X
1$
#4225
0$
#4250
b10100110 T
b1010011 X
1$
#4275
0$
#4300
b10101000 T
b1010100 X
1$
#4325
0$
#4350
b10101010 T
b1010101 X
1$
#4375
0$
#4400
b10101100 T
b1010110 X
1$
#4425
0$
#4450
b10101110 T
b1010111 X
1$
#4475
0$
#4500
b10110000 T
b1011000 X
1$
#4525
0$
#4550
b10110010 T
b1011001 X
1$
#4575
0$
#4600
b10110100 T
b1011010 X
1$
#4625
0$
#4650
b10110110 T
b1011011 X
1$
#4675
0$
#4700
b10111000 T
b1011100 X
1$
#4725
0$
#4750
b10111010 T
b1011101 X
1$
#4775
0$
#4800
b10111100 T
b1011110 X
1$
#4825
0$
#4850
b10111110 T
b1011111 X
1$
#4875
0$
#4900
b11000000 T
b1100000 X
1$
#4925
0$
#4950
b11000010 T
b1100001 X
1$
#4975
0$
#5000
b11000100 T
b1100010 X
1$
#5025
0$
#5050
b11000110 T
b1100011 X
1$
#5075
0$
#5100
b11001000 T
b1100100 X
1$
#5125
0$
#5150
b11001010 T
b1100101 X
1$
#5175
0$
#5200
b11001100 T
b1100110 X
1$
#5225
0$
#5250
b11001110 T
b1100111 X
1$
#5275
0$
#5300
b11010000 T
b1101000 X
1$
#5325
0$
#5350
b11010010 T
b1101001 X
1$
#5375
0$
#5400
b11010100 T
b1101010 X
1$
#5425
0$
#5450
b11010110 T
b1101011 X
1$
#5475
0$
#5500
b11011000 T
b1101100 X
1$
#5525
0$
#5550
b11011010 T
b1101101 X
1$
#5575
0$
#5600
b11011100 T
b1101110 X
1$
#5625
0$
#5650
b11011110 T
b1101111 X
1$
#5675
0$
#5700
b11100000 T
b1110000 X
1$
#5725
0$
#5750
b11100010 T
b1110001 X
1$
#5775
0$
#5800
b11100100 T
b1110010 X
1$
#5825
0$
#5850
b11100110 T
b1110011 X
1$
#5875
0$
#5900
b11101000 T
b1110100 X
1$
#5925
0$
#5950
b11101010 T
b1110101 X
1$
#5975
0$
#6000
b11101100 T
b1110110 X
1$
#6025
0$
#6050
b11101110 T
b1110111 X
1$
#6075
0$
#6100
b11110000 T
b1111000 X
1$
#6125
0$
#6150
b11110010 T
b1111001 X
1$
#6175
0$
#6200
b11110100 T
b1111010 X
1$
#6225
0$
#6250
b11110110 T
b1111011 X
1$
#6275
0$
#6300
b11111000 T
b1111100 X
1$
#6325
0$
#6350
b11111010 T
b1111101 X
1$
#6375
0$
#6400
b11111100 T
b1111110 X
1$
#6425
0$
#6450
b11111110 T
b1111111 X
1$
#6475
0$
#6500
b100000000 T
b10000000 X
1$
#6525
0$
#6550
b100000010 T
b10000001 X
1$
#6575
0$
#6600
b100000100 T
b10000010 X
1$
#6625
0$
#6650
b100000110 T
b10000011 X
1$
#6675
0$
#6700
b100001000 T
b10000100 X
1$
#6725
0$
#6750
b100001010 T
b10000101 X
1$
#6775
0$
#6800
b100001100 T
b10000110 X
1$
#6825
0$
#6850
b100001110 T
b10000111 X
1$
#6875
0$
#6900
b100010000 T
b10001000 X
1$
#6925
0$
#6950
b100010010 T
b10001001 X
1$
#6975
0$
#7000
b100010100 T
b10001010 X
1$
#7025
0$
#7050
b100010110 T
b10001011 X
1$
#7075
0$
#7100
b100011000 T
b10001100 X
1$
#7125
0$
#7150
b100011010 T
b10001101 X
1$
#7175
0$
#7200
b100011100 T
b10001110 X
1$
#7225
0$
#7250
b100011110 T
b10001111 X
1$
#7275
0$
#7300
b100100000 T
b10010000 X
1$
#7325
0$
#7350
b100100010 T
b10010001 X
1$
#7375
0$
#7400
b100100100 T
b10010010 X
1$
#7425
0$
#7450
b100100110 T
b10010011 X
1$
#7475
0$
#7500
b100101000 T
b10010100 X
1$
#7525
0$
#7550
b100101010 T
b10010101 X
1$
#7575
0$
#7600
b100101100 T
b10010110 X
1$
#7625
0$
#7650
b100101110 T
b10010111 X
1$
#7675
0$
#7700
b100110000 T
b10011000 X
1$
#7725
0$
#7750
b100110010 T
b10011001 X
1$
#7775
0$
#7800
b100110100 T
b10011010 X
1$
#7825
0$
#7850
b100110110 T
b10011011 X
1$
#7875
0$
#7900
b100111000 T
b10011100 X
1$
#7925
0$
#7950
b100111010 T
b10011101 X
1$
#7975
0$
#8000
b100111100 T
b10011110 X
1$
#8025
0$
#8050
b100111110 T
b10011111 X
1$
#8075
0$
#8100
b101000000 T
b10100000 X
1$
#8125
0$
#8150
b101000010 T
b10100001 X
1$
#8175
0$
#8200
b101000100 T
b10100010 X
1$
#8225
0$
#8250
b101000110 T
b10100011 X
1$
#8275
0$
#8300
b101001000 T
b10100100 X
1$
#8325
0$
#8350
b101001010 T
b10100101 X
1$
#8375
0$
#8400
b101001100 T
b10100110 X
1$
#8425
0$
#8450
b101001110 T
b10100111 X
1$
#8475
0$
#8500
b101010000 T
b10101000 X
1$
#8525
0$
#8550
b101010010 T
b10101001 X
1$
#8575
0$
#8600
b101010100 T
b10101010 X
1$
#8625
0$
#8650
b101010110 T
b10101011 X
1$
#8675
0$
#8700
b101011000 T
b10101100 X
1$
#8725
0$
#8750
b101011010 T
b10101101 X
1$
#8775
0$
#8800
b101011100 T
b10101110 X
1$
#8825
0$
#8850
b101011110 T
b10101111 X
1$
#8875
0$
#8900
b101100000 T
b10110000 X
1$
#8925
0$
#8950
b101100010 T
b10110001 X
1$
#8975
0$
#9000
b101100100 T
b10110010 X
1$
#9025
0$
#9050
b101100110 T
b10110011 X
1$
#9075
0$
#9100
b101101000 T
b10110100 X
1$
#9125
0$
#9150
b101101010 T
b10110101 X
1$
#9175
0$
#9200
b101101100 T
b10110110 X
1$
#9225
0$
#9250
b101101110 T
b10110111 X
1$
#9275
0$
#9300
b101110000 T
b10111000 X
1$
#9325
0$
#9350
b101110010 T
b10111001 X
1$
#9375
0$
#9400
b101110100 T
b10111010 X
1$
#9425
0$
#9450
b101110110 T
b10111011 X
1$
#9475
0$
#9500
b101111000 T
b10111100 X
1$
#9525
0$
#9550
b101111010 T
b10111101 X
1$
#9575
0$
#9600
b101111100 T
b10111110 X
1$
#9625
0$
#9650
b101111110 T
b10111111 X
1$
#9675
0$
#9700
b110000000 T
b11000000 X
1$
#9725
0$
#9750
b110000010 T
b11000001 X
1$
#9775
0$
#9800
b110000100 T
b11000010 X
1$
#9825
0$
#9850
b110000110 T
b11000011 X
1$
#9875
0$
#9900
b110001000 T
b11000100 X
1$
#9925
0$
#9950
b110001010 T
b11000101 X
1$
#9975
0$
#10000
b110001100 T
b11000110 X
1$
#10025
0$
#10050
b110001110 T
b11000111 X
1$
#10075
0$
#10100
b110010000 T
b11001000 X
1$
#10125
0$
#10150
b110010010 T
b11001001 X
1$
#10175
0$
#10200
b110010100 T
b11001010 X
1$
#10225
0$
#10250
b110010110 T
b11001011 X
1$
#10275
0$
#10300
b110011000 T
b11001100 X
1$
#10325
0$
#10350
b110011010 T
b11001101 X
1$
#10375
0$
#10400
b110011100 T
b11001110 X
1$
#10425
0$
#10450
b110011110 T
b11001111 X
1$
#10475
0$
#10500
b110100000 T
b11010000 X
1$
#10525
0$
#10550
b110100010 T
b11010001 X
1$
#10575
0$
#10600
b110100100 T
b11010010 X
1$
#10625
0$
#10650
b110100110 T
b11010011 X
1$
#10675
0$
#10700
b110101000 T
b11010100 X
1$
#10725
0$
#10750
b110101010 T
b11010101 X
1$
#10775
0$
#10800
b110101100 T
b11010110 X
1$
#10825
0$
#10850
b110101110 T
b11010111 X
1$
#10875
0$
#10900
b110110000 T
b11011000 X
1$
#10925
0$
#10950
b110110010 T
b11011001 X
1$
#10975
0$
#11000
b110110100 T
b11011010 X
1$
#11025
0$
#11050
b110110110 T
b11011011 X
1$
#11075
0$
#11100
b110111000 T
b11011100 X
1$
#11125
0$
#11150
b110111010 T
b11011101 X
1$
#11175
0$
#11200
b110111100 T
b11011110 X
1$
#11225
0$
#11250
b110111110 T
b11011111 X
1$
#11275
0$
#11300
b111000000 T
b11100000 X
1$
#11325
0$
#11350
b111000010 T
b11100001 X
1$
#11375
0$
#11400
b111000100 T
b11100010 X
1$
#11425
0$
#11450
b111000110 T
b11100011 X
1$
#11475
0$
#11500
b111001000 T
b11100100 X
1$
#11525
0$
#11550
b111001010 T
b11100101 X
1$
#11575
0$
#11600
b111001100 T
b11100110 X
1$
#11625
0$
#11650
b111001110 T
b11100111 X
1$
#11675
0$
#11700
b111010000 T
b11101000 X
1$
#11725
0$
#11750
b111010010 T
b11101001 X
1$
#11775
0$
#11800
b111010100 T
b11101010 X
1$
#11825
0$
#11850
b111010110 T
b11101011 X
1$
#11875
0$
#11900
b111011000 T
b11101100 X
1$
#11925
0$
#11950
b111011010 T
b11101101 X
1$
#11975
0$
#12000
b111011100 T
b11101110 X
1$
#12025
0$
#12050
b111011110 T
b11101111 X
1$
#12075
0$
#12100
b111100000 T
b11110000 X
1$
#12125
0$
#12150
b111100010 T
b11110001 X
1$
#12175
0$
#12200
b111100100 T
b11110010 X
1$
#12225
0$
#12250
b111100110 T
b11110011 X
1$
#12275
0$
#12300
b111101000 T
b11110100 X
1$
#12325
0$
#12350
b111101010 T
b11110101 X
1$
#12375
0$
#12400
b111101100 T
b11110110 X
1$
#12425
0$
#12450
b111101110 T
b11110111 X
1$
#12475
0$
#12500
b111110000 T
b11111000 X
1$
#12525
0$
#12550
b111110010 T
b11111001 X
1$
#12575
0$
#12600
b111110100 T
b11111010 X
1$
#12625
0$
#12650
b111110110 T
b11111011 X
1$
#12675
0$
#12700
b111111000 T
b11111100 X
1$
#12725
0$
#12750
b111111010 T
b11111101 X
1$
#12775
0$
#12800
b111111100 T
b11111110 X
1$
#12825
0$
#12850
b111111110 T
b11111111 X
1$
#12875
0$
#12900
b1000000000 T
b100000000 X
1$
#12925
0$
#12950
b1000000010 T
b100000001 X
1$
#12975
0$
#13000
b1000000100 T
b100000010 X
1$
#13025
0$
#13050
b1000000110 T
b100000011 X
1$
#13075
0$
#13100
b1000001000 T
b100000100 X
1$
#13125
0$
#13150
b1000001010 T
b100000101 X
1$
#13175
0$
#13200
b1000001100 T
b100000110 X
1$
#13225
0$
#13250
b1000001110 T
b100000111 X
1$
#13275
0$
#13300
b1000010000 T
b100001000 X
1$
#13325
0$
#13350
b1000010010 T
b100001001 X
1$
#13375
0$
#13400
b1000010100 T
b100001010 X
1$
#13425
0$
#13450
b1000010110 T
b100001011 X
1$
#13475
0$
#13500
b1000011000 T
b100001100 X
1$
#13525
0$
#13550
b1000011010 T
b100001101 X
1$
#13575
0$
#13600
b1000011100 T
b100001110 X
1$
#13625
0$
#13650
b1000011110 T
b100001111 X
1$
#13675
0$
#13700
b1000100000 T
b100010000 X
1$
#13725
0$
#13750
b1000100010 T
b100010001 X
1$
#13775
0$
#13800
b1000100100 T
b100010010 X
1$
#13825
0$
#13850
b1000100110 T
b100010011 X
1$
#13875
0$
#13900
b1000101000 T
b100010100 X
1$
#13925
0$
#13950
b1000101010 T
b100010101 X
1$
#13975
0$
#14000
b1000101100 T
b100010110 X
1$
#14025
0$
#14050
b1000101110 T
b100010111 X
1$
#14075
0$
#14100
b1000110000 T
b100011000 X
1$
#14125
0$
#14150
b1000110010 T
b100011001 X
1$
#14175
0$
#14200
b1000110100 T
b100011010 X
1$
#14225
0$
#14250
b1000110110 T
b100011011 X
1$
#14275
0$
#14300
b1000111000 T
b100011100 X
1$
#14325
0$
#14350
b1000111010 T
b100011101 X
1$
#14375
0$
#14400
b1000111100 T
b100011110 X
1$
#14425
0$
#14450
b1000111110 T
b100011111 X
1$
#14475
0$
#14500
b1001000000 T
b100100000 X
1$
#14525
0$
#14550
b1001000010 T
b100100001 X
1$
#14575
0$
#14600
b1001000100 T
b100100010 X
1$
#14625
0$
#14650
b1001000110 T
b100100011 X
1$
#14675
0$
#14700
b1001001000 T
b100100100 X
1$
#14725
0$
#14750
b1001001010 T
b100100101 X
1$
#14775
0$
#14800
b1001001100 T
b100100110 X
1$
#14825
0$
#14850
b1001001110 T
b100100111 X
1$
#14875
0$
#14900
b1001010000 T
b100101000 X
1$
#14925
0$
#14950
b1001010010 T
b100101001 X
1$
#14975
0$
#15000
b1001010100 T
b100101010 X
1$
#15025
0$
#15050
b1001010110 T
b100101011 X
1$
#15075
0$
#15100
b1001011000 T
b100101100 X
1$
#15125
0$
#15150
b1001011010 T
b100101101 X
1$
#15175
0$
#15200
b1001011100 T
b100101110 X
1$
#15225
0$
#15250
b1001011110 T
b100101111 X
1$
#15275
0$
#15300
b1001100000 T
b100110000 X
1$
#15325
0$
#15350
b1001100010 T
b100110001 X
1$
#15375
0$
#15400
b1001100100 T
b100110010 X
1$
#15425
0$
#15450
b1001100110 T
b100110011 X
1$
#15475
0$
#15500
b1001101000 T
b100110100 X
1$
#15525
0$
#15550
b1001101010 T
b100110101 X
1$
#15575
0$
#15600
b1001101100 T
b100110110 X
1$
#15625
0$
#15650
b1001101110 T
b100110111 X
1$
#15675
0$
#15700
b1001110000 T
b100111000 X
1$
#15725
0$
#15750
b1001110010 T
b100111001 X
1$
#15775
0$
#15800
b1001110100 T
b100111010 X
1$
#15825
0$
#15850
b1001110110 T
b100111011 X
1$
#15875
0$
#15900
b1001111000 T
b100111100 X
1$
#15925
0$
#15950
b1001111010 T
b100111101 X
1$
#15975
0$
#16000
b1001111100 T
b100111110 X
1$
#16025
0$
#16050
b1001111110 T
b100111111 X
1$
#16075
0$
#16100
b1010000000 T
b101000000 X
1$
#16125
0$
#16150
b1010000010 T
b101000001 X
1$
#16175
0$
#16200
b1010000100 T
b101000010 X
1$
#16225
0$
#16250
b1010000110 T
b101000011 X
1$
#16275
0$
#16300
b1010001000 T
b101000100 X
1$
#16325
0$
#16350
b1010001010 T
b101000101 X
1$
#16375
0$
#16400
b1010001100 T
b101000110 X
1$
#16425
0$
#16450
b1010001110 T
b101000111 X
1$
#16475
0$
#16500
b1010010000 T
b101001000 X
1$
#16525
0$
#16550
b1010010010 T
b101001001 X
1$
#16575
0$
#16600
b1010010100 T
b101001010 X
1$
#16625
0$
#16650
b1010010110 T
b101001011 X
1$
#16675
0$
#16700
b1010011000 T
b101001100 X
1$
#16725
0$
#16750
b1010011010 T
b101001101 X
1$
#16775
0$
#16800
b1010011100 T
b101001110 X
1$
#16825
0$
#16850
b1010011110 T
b101001111 X
1$
#16875
0$
#16900
b1010100000 T
b101010000 X
1$
#16925
0$
#16950
b1010100010 T
b101010001 X
1$
#16975
0$
#17000
b1010100100 T
b101010010 X
1$
#17025
0$
#17050
b1010100110 T
b101010011 X
1$
#17075
0$
#17100
b1010101000 T
b101010100 X
1$
#17125
0$
#17150
b1010101010 T
b101010101 X
1$
#17175
0$
#17200
b1010101100 T
b101010110 X
1$
#17225
0$
#17250
b1010101110 T
b101010111 X
1$
#17275
0$
#17300
b1010110000 T
b101011000 X
1$
#17325
0$
#17350
b1010110010 T
b101011001 X
1$
#17375
0$
#17400
b1010110100 T
b101011010 X
1$
#17425
0$
#17450
b1010110110 T
b101011011 X
1$
#17475
0$
#17500
b1010111000 T
b101011100 X
1$
#17525
0$
#17550
b1010111010 T
b101011101 X
1$
#17575
0$
#17600
b1010111100 T
b101011110 X
1$
#17625
0$
#17650
b1010111110 T
b101011111 X
1$
#17675
0$
#17700
b1011000000 T
b101100000 X
1$
#17725
0$
#17750
b1011000010 T
b101100001 X
1$
#17775
0$
#17800
b1011000100 T
b101100010 X
1$
#17825
0$
#17850
b1011000110 T
b101100011 X
1$
#17875
0$
#17900
b1011001000 T
b101100100 X
1$
#17925
0$
#17950
b1011001010 T
b101100101 X
1$
#17975
0$
#18000
b1011001100 T
b101100110 X
1$
#18025
0$
#18050
b1011001110 T
b101100111 X
1$
#18075
0$
#18100
b1011010000 T
b101101000 X
1$
#18125
0$
#18150
b1011010010 T
b101101001 X
1$
#18175
0$
#18200
b1011010100 T
b101101010 X
1$
#18225
0$
#18250
b1011010110 T
b101101011 X
1$
#18275
0$
#18300
b1011011000 T
b101101100 X
1$
#18325
0$
#18350
b1011011010 T
b101101101 X
1$
#18375
0$
#18400
b1011011100 T
b101101110 X
1$
#18425
0$
#18450
b1011011110 T
b101101111 X
1$
#18475
0$
#18500
b1011100000 T
b101110000 X
1$
#18525
0$
#18550
b1011100010 T
b101110001 X
1$
#18575
0$
#18600
b1011100100 T
b101110010 X
1$
#18625
0$
#18650
b1011100110 T
b101110011 X
1$
#18675
0$
#18700
b1011101000 T
b101110100 X
1$
#18725
0$
#18750
b1011101010 T
b101110101 X
1$
#18775
0$
#18800
b1011101100 T
b101110110 X
1$
#18825
0$
#18850
b1011101110 T
b101110111 X
1$
#18875
0$
#18900
b1011110000 T
b101111000 X
1$
#18925
0$
#18950
b1011110010 T
b101111001 X
1$
#18975
0$
#19000
b1011110100 T
b101111010 X
1$
#19025
0$
#19050
b1011110110 T
b101111011 X
1$
#19075
0$
#19100
b1011111000 T
b101111100 X
1$
#19125
0$
#19150
b1011111010 T
b101111101 X
1$
#19175
0$
#19200
b1011111100 T
b101111110 X
1$
#19225
0$
#19250
b1011111110 T
b101111111 X
1$
#19275
0$
#19300
b1100000000 T
b110000000 X
1$
#19325
0$
#19350
b1100000010 T
b110000001 X
1$
#19375
0$
#19400
b1100000100 T
b110000010 X
1$
#19425
0$
#19450
b1100000110 T
b110000011 X
1$
#19475
0$
#19500
b1100001000 T
b110000100 X
1$
#19525
0$
#19550
b1100001010 T
b110000101 X
1$
#19575
0$
#19600
b1100001100 T
b110000110 X
1$
#19625
0$
#19650
b1100001110 T
b110000111 X
1$
#19675
0$
#19700
b1100010000 T
b110001000 X
1$
#19725
0$
#19750
b1100010010 T
b110001001 X
1$
#19775
0$
#19800
b1100010100 T
b110001010 X
1$
#19825
0$
#19850
b1100010110 T
b110001011 X
1$
#19875
0$
#19900
b1100011000 T
b110001100 X
1$
#19925
0$
#19950
b1100011010 T
b110001101 X
1$
#19975
0$
#20000
b1100011100 T
b110001110 X
1$
#20025
0$
#20050
b1100011110 T
b110001111 X
1$
#20075
0$
#20100
b1100100000 T
b110010000 X
1$
#20125
0$
#20150
b1100100010 T
b110010001 X
1$
#20175
0$
#20200
b1100100100 T
b110010010 X
1$
#20225
0$
#20250
b1100100110 T
b110010011 X
1$
#20275
0$
#20300
b1100101000 T
b110010100 X
1$
#20325
0$
#20350
b1100101010 T
b110010101 X
1$
#20375
0$
#20400
b1100101100 T
b110010110 X
1$
#20425
0$
#20450
b1100101110 T
b110010111 X
1$
#20475
0$
#20500
b1100110000 T
b110011000 X
1$
#20525
0$
#20550
b1100110010 T
b110011001 X
1$
#20575
0$
#20600
b1100110100 T
b110011010 X
1$
#20625
0$
#20650
b1100110110 T
b110011011 X
1$
#20675
0$
#20700
b1100111000 T
b110011100 X
1$
#20725
0$
#20750
b1100111010 T
b110011101 X
1$
#20775
0$
#20800
b1100111100 T
b110011110 X
1$
#20825
0$
#20850
b1100111110 T
b110011111 X
1$
#20875
0$
#20900
b1101000000 T
b110100000 X
1$
#20925
0$
#20950
b1101000010 T
b110100001 X
1$
#20975
0$
#21000
b1101000100 T
b110100010 X
1$
#21025
0$
#21050
b1101000110 T
b110100011 X
1$
#21075
0$
#21100
b1101001000 T
b110100100 X
1$
#21125
0$
#21150
b1101001010 T
b110100101 X
1$
#21175
0$
#21200
b1101001100 T
b110100110 X
1$
#21225
0$
#21250
b1101001110 T
b110100111 X
1$
#21275
0$
#21300
b1101010000 T
b110101000 X
1$
#21325
0$
#21350
b1101010010 T
b110101001 X
1$
#21375
0$
#21400
b1101010100 T
b110101010 X
1$
#21425
0$
#21450
b1101010110 T
b110101011 X
1$
#21475
0$
#21500
b1101011000 T
b110101100 X
1$
#21525
0$
#21550
b1101011010 T
b110101101 X
1$
#21575
0$
#21600
b1101011100 T
b110101110 X
1$
#21625
0$
#21650
b1101011110 T
b110101111 X
1$
#21675
0$
#21700
b1101100000 T
b110110000 X
1$
#21725
0$
#21750
b1101100010 T
b110110001 X
1$
#21775
0$
#21800
b1101100100 T
b110110010 X
1$
#21825
0$
#21850
b1101100110 T
b110110011 X
1$
#21875
0$
#21900
b1101101000 T
b110110100 X
1$
#21925
0$
#21950
b1101101010 T
b110110101 X
1$
#21975
0$
#22000
b1101101100 T
b110110110 X
1$
#22025
0$
#22050
b1101101110 T
b110110111 X
1$
#22075
0$
#22100
b1101110000 T
b110111000 X
1$
#22125
0$
#22150
b1101110010 T
b110111001 X
1$
#22175
0$
#22200
b1101110100 T
b110111010 X
1$
#22225
0$
#22250
b1101110110 T
b110111011 X
1$
#22275
0$
#22300
b1101111000 T
b110111100 X
1$
#22325
0$
#22350
b1101111010 T
b110111101 X
1$
#22375
0$
#22400
b1101111100 T
b110111110 X
1$
#22425
0$
#22450
b1101111110 T
b110111111 X
1$
#22475
0$
#22500
b1110000000 T
b111000000 X
1$
#22525
0$
