verilog/exe/wave.vcd
$date
	Wed Feb 10 15:58:01 2021
$end
$version
	Icarus Verilog
$end
$timescale
	1s
$end
$scope module IP2_TEST $end
$scope module ip2_0 $end
$var wire 1 ! BANKI $end
$var wire 1 " CLK $end
$var wire 128 # DI [127:0] $end
$var wire 1 $ PURGE $end
$var wire 1 % RCEBI $end
$var wire 1 & RSTL $end
$var wire 1 ' SEQ_PURGE $end
$var wire 14 ( WADDRI [13:0] $end
$var wire 1 ) WCEBI $end
$var wire 1 * WCEBX $end
$var wire 1 + WBUF_SWITCH $end
$var wire 1 , WBUF_PURGE $end
$var wire 6 - WBUF_EN_CTRL [5:0] $end
$var wire 1 . WBUF_EN $end
$var wire 1 / WBUF_ALL_EN $end
$var wire 16 0 WADDRX [15:0] $end
$var wire 1 1 SHIFT_MODE $end
$var wire 1 2 RESULT_REQ $end
$var wire 1 3 RESULT_PURGE $end
$var wire 1 4 REQW $end
$var wire 1 5 RCEBX0 $end
$var wire 1 6 RCEBX $end
$var wire 1 7 RCEBW $end
$var wire 16 8 RADDRX [15:0] $end
$var wire 16 9 RADDRW [15:0] $end
$var wire 14 : RADDRI [13:0] $end
$var wire 128 ; QI [127:0] $end
$var wire 1 < O_COMPARE_SWITCH $end
$var wire 1 = O_COMPARE_MODE $end
$var wire 1 > O_COMPARE_EN $end
$var wire 6 ? OUTPUT_EN_CTRL [5:0] $end
$var wire 1 @ OUTPUT_EN $end
$var wire 4 A OLSB [3:0] $end
$var wire 2 B NL_SEL [1:0] $end
$var wire 1 C NL_EN $end
$var wire 1 D MAC_EN $end
$var wire 1 E I_COMPARE_SWITCH $end
$var wire 1 F I_COMPARE_REGEN $end
$var wire 1 G I_COMPARE_MODE $end
$var wire 1 H I_COMPARE_EN $end
$var wire 1 I FEEDBACK_MODE $end
$var wire 1 J FC_WEIGHT_EN $end
$var wire 1 K CONV_FC_MODE $end
$var wire 1 L CONF_EN $end
$var wire 1 M CAL_MODE $end
$var wire 1 N BANKX $end
$var wire 1 O BANKW $end
$scope module memi_0 $end
$var wire 1 ! BANK $end
$var wire 1 " CLK $end
$var wire 128 P DW [127:0] $end
$var wire 1 % RCEB $end
$var wire 14 Q WA [13:0] $end
$var wire 1 ) WCEB $end
$var wire 1 R we1b $end
$var wire 1 S we0b $end
$var wire 128 T q1 [127:0] $end
$var wire 128 U q0 [127:0] $end
$var wire 1 V ce1b $end
$var wire 1 W ce0b $end
$var wire 13 X adrs1 [12:0] $end
$var wire 13 Y adrs0 [12:0] $end
$var wire 14 Z RA [13:0] $end
$var wire 128 [ QW [127:0] $end
$var reg 1 \ bnk $end
$scope module bank0_ram0 $end
$var wire 13 ] A [12:0] $end
$var wire 13 ^ AM [12:0] $end
$var wire 1 _ AWT $end
$var wire 1 ` BIST $end
$var wire 1 a BWEB $end
$var wire 1 b BWEBM $end
$var wire 1 W CEB $end
$var wire 1 c CEBM $end
$var wire 1 " CLK $end
$var wire 128 d D [127:0] $end
$var wire 128 e DM [127:0] $end
$var wire 1 f PD $end
$var wire 1 S WEB $end
$var wire 1 g WEBM $end
$var reg 128 h Q [127:0] $end
$upscope $end
$scope module bank0_ram1 $end
$var wire 13 i A [12:0] $end
$var wire 13 j AM [12:0] $end
$var wire 1 k AWT $end
$var wire 1 l BIST $end
$var wire 1 m BWEB $end
$var wire 1 n BWEBM $end
$var wire 1 V CEB $end
$var wire 1 o CEBM $end
$var wire 1 " CLK $end
$var wire 128 p D [127:0] $end
$var wire 128 q DM [127:0] $end
$var wire 1 r PD $end
$var wire 1 R WEB $end
$var wire 1 s WEBM $end
$var reg 128 t Q [127:0] $end
$upscope $end
$upscope $end
$scope module sequencer_0 $end
$var wire 1 " CLK $end
$var wire 1 ' PURGE $end
$var wire 128 u QI [127:0] $end
$var wire 1 % RCEBI $end
$var wire 1 & RSTL $end
$var wire 1 v module_busy $end
$var wire 1 w module_en $end
$var wire 16 x raddrw [15:0] $end
$var wire 16 y raddrx [15:0] $end
$var wire 16 z waddrx [15:0] $end
$var wire 1 { wbuf_busy $end
$var wire 1 | pc_change $end
$var wire 1 } output_busy $end
$var wire 1 ~ cal_busy $end
$var wire 1 * WCEBX $end
$var wire 1 + WBUF_SWITCH $end
$var wire 1 , WBUF_PURGE $end
$var wire 6 !" WBUF_EN_CTRL [5:0] $end
$var wire 1 . WBUF_EN $end
$var wire 1 / WBUF_ALL_EN $end
$var wire 16 "" WADDRX [15:0] $end
$var wire 1 1 SHIFT_MODE $end
$var wire 1 2 RESULT_REQ $end
$var wire 1 3 RESULT_PURGE $end
$var wire 1 #" REQX $end
$var wire 1 4 REQW $end
$var wire 1 5 RCEBX0 $end
$var wire 1 6 RCEBX $end
$var wire 1 7 RCEBW $end
$var wire 16 $" RADDRX [15:0] $end
$var wire 16 %" RADDRW [15:0] $end
$var wire 14 &" RADDRI [13:0] $end
$var wire 1 < O_COMPARE_SWITCH $end
$var wire 1 = O_COMPARE_MODE $end
$var wire 1 > O_COMPARE_EN $end
$var wire 6 '" OUTPUT_EN_CTRL [5:0] $end
$var wire 1 @ OUTPUT_EN $end
$var wire 4 (" OLSB [3:0] $end
$var wire 2 )" NL_SEL [1:0] $end
$var wire 1 C NL_EN $end
$var wire 1 D MAC_EN $end
$var wire 1 E I_COMPARE_SWITCH $end
$var wire 1 F I_COMPARE_REGEN $end
$var wire 1 G I_COMPARE_MODE $end
$var wire 1 H I_COMPARE_EN $end
$var wire 1 I FEEDBACK_MODE $end
$var wire 1 J FC_WEIGHT_EN $end
$var wire 1 K CONV_FC_MODE $end
$var wire 1 L CONF_EN $end
$var wire 1 M CAL_MODE $end
$var wire 1 N BANKX $end
$var wire 1 O BANKW $end
$var reg 8 *" counter1 [7:0] $end
$var reg 8 +" counter2 [7:0] $end
$var reg 8 ," counter3 [7:0] $end
$var reg 8 -" counter4 [7:0] $end
$var reg 16 ." delay_pc [15:0] $end
$var reg 16 /" pc [15:0] $end
$var reg 256 0" qi_latch [255:0] $end
$var reg 16 1" reg_raddrw [15:0] $end
$var reg 16 2" reg_raddrx [15:0] $end
$var reg 16 3" reg_waddrx [15:0] $end
$scope module cal_0 $end
$var wire 1 ~ CAL_BUSY $end
$var wire 1 " CLK $end
$var wire 1 4" CONV_CAL $end
$var wire 8 5" COUNTER0 [7:0] $end
$var wire 1 6" FC_CAL $end
$var wire 16 7" RADDRW_I [15:0] $end
$var wire 1 & RSTL $end
$var wire 1 v module_busy $end
$var wire 1 J WEIGHT_EN $end
$var wire 1 8" RCEBW_FC $end
$var wire 1 9" RCEBW_CONV $end
$var wire 1 7 RCEBW $end
$var wire 16 :" RADDRW_FC [15:0] $end
$var wire 16 ;" RADDRW_CONV [15:0] $end
$var wire 16 <" RADDRW [15:0] $end
$var wire 1 =" NL_EN_FC $end
$var wire 1 >" NL_EN_CONV $end
$var wire 1 C NL_EN $end
$var wire 1 ?" MAC_EN_FC $end
$var wire 1 @" MAC_EN_CONV $end
$var wire 1 D MAC_EN $end
$var wire 1 A" FC_BUSY $end
$var wire 1 B" COUNTER0_O $end
$var wire 1 C" CONV_BUSY $end
$var wire 1 M CAL_MODE $end
$scope module conv_cal_0 $end
$var wire 1 " CLK $end
$var wire 1 4" CONV_CAL $end
$var wire 8 D" COUNTER0 [7:0] $end
$var wire 16 E" RADDRW_I [15:0] $end
$var wire 1 & RSTL $end
$var wire 1 v module_busy $end
$var wire 1 F" start $end
$var wire 1 9" RCEBW $end
$var wire 16 G" RADDRW [15:0] $end
$var wire 1 >" NL_EN $end
$var wire 1 @" MAC_EN $end
$var wire 1 B" COUNTER0_O $end
$var wire 1 C" CONV_BUSY $end
$var reg 3 H" cnt [2:0] $end
$var reg 8 I" counter0 [7:0] $end
$var reg 1 @" reg_macen $end
$var reg 1 >" reg_nlen $end
$var reg 16 J" reg_raddrw [15:0] $end
$upscope $end
$scope module fc_cal_0 $end
$var wire 1 M CAL_MODE $end
$var wire 1 " CLK $end
$var wire 8 K" COUNTER0 [7:0] $end
$var wire 1 6" FC_CAL $end
$var wire 16 L" RADDRW_I [15:0] $end
$var wire 1 & RSTL $end
$var wire 1 J WEIGHT_EN $end
$var wire 1 v module_busy $end
$var wire 1 M" start $end
$var wire 1 8" RCEBW $end
$var wire 16 N" RADDRW [15:0] $end
$var wire 1 =" NL_EN $end
$var wire 1 ?" MAC_EN $end
$var wire 1 A" FC_BUSY $end
$var reg 4 O" cnt [3:0] $end
$var reg 8 P" counter0 [7:0] $end
$var reg 1 Q" reg_calmode $end
$var reg 1 ?" reg_macen $end
$var reg 1 =" reg_nlen $end
$var reg 16 R" reg_raddrw [15:0] $end
$var reg 1 8" reg_rcebw $end
$var reg 1 S" reg_weighten $end
$upscope $end
$upscope $end
$scope module output_send_0 $end
$var wire 1 " CLK $end
$var wire 8 T" COUNTER0 [7:0] $end
$var wire 1 } OUTPUT_BUSY $end
$var wire 6 U" OUTPUT_EN_CTRL_I [5:0] $end
$var wire 1 V" OUTPUT_SEND $end
$var wire 1 W" OUTPUT_SEND_POOL $end
$var wire 1 X" O_COMPARE_REGEN $end
$var wire 1 & RSTL $end
$var wire 16 Y" WADDRX_I [15:0] $end
$var wire 1 v module_busy $end
$var wire 1 Z" WCEBX_POOL $end
$var wire 1 [" WCEBX_NO $end
$var wire 1 * WCEBX $end
$var wire 16 \" WADDRX_POOL [15:0] $end
$var wire 16 ]" WADDRX_NO [15:0] $end
$var wire 16 ^" WADDRX [15:0] $end
$var wire 1 < O_COMPARE_SWITCH $end
$var wire 1 = O_COMPARE_MODE $end
$var wire 1 > O_COMPARE_EN $end
$var wire 1 _" OUTPUT_POOL_BUSY $end
$var wire 1 `" OUTPUT_NO_BUSY $end
$var wire 1 a" OUTPUT_EN_POOL $end
$var wire 1 b" OUTPUT_EN_NO $end
$var wire 6 c" OUTPUT_EN_CTRL_POOL [5:0] $end
$var wire 6 d" OUTPUT_EN_CTRL_NO [5:0] $end
$var wire 6 e" OUTPUT_EN_CTRL [5:0] $end
$var wire 1 @ OUTPUT_EN $end
$var wire 1 f" COUNTER0_O $end
$scope module output_send_nopool_0 $end
$var wire 1 " CLK $end
$var wire 8 g" COUNTER0 [7:0] $end
$var wire 6 h" OUTPUT_EN_CTRL_I [5:0] $end
$var wire 1 V" OUTPUT_SEND $end
$var wire 1 & RSTL $end
$var wire 16 i" WADDRX_I [15:0] $end
$var wire 1 v module_busy $end
$var wire 1 j" start $end
$var wire 1 [" WCEBX $end
$var wire 16 k" WADDRX [15:0] $end
$var wire 6 l" OUTPUT_EN_CTRL [5:0] $end
$var wire 1 b" OUTPUT_EN $end
$var wire 1 `" OUTPUT_BUSY $end
$var wire 1 f" COUNTER0_O $end
$var reg 3 m" cnt [2:0] $end
$var reg 8 n" counter0 [7:0] $end
$var reg 6 o" reg_outputenctrl [5:0] $end
$var reg 16 p" reg_waddrx [15:0] $end
$upscope $end
$scope module output_send_pool_0 $end
$var wire 1 " CLK $end
$var wire 8 q" COUNTER0 [7:0] $end
$var wire 6 r" OUTPUT_EN_CTRL_I [5:0] $end
$var wire 1 W" OUTPUT_SEND_POOL $end
$var wire 1 > O_COMPARE_EN $end
$var wire 1 < O_COMPARE_SWITCH $end
$var wire 1 & RSTL $end
$var wire 16 s" WADDRX_I [15:0] $end
$var wire 1 v module_busy $end
$var wire 1 t" start $end
$var wire 1 Z" WCEBX $end
$var wire 16 u" WADDRX [15:0] $end
$var wire 1 = O_COMPARE_MODE $end
$var wire 1 _" OUTPUT_POOL_BUSY $end
$var wire 6 v" OUTPUT_EN_CTRL [5:0] $end
$var wire 1 a" OUTPUT_EN $end
$var reg 5 w" cnt [4:0] $end
$var reg 8 x" counter0 [7:0] $end
$var reg 1 y" reg_c_en $end
$var reg 1 z" reg_c_switch $end
$var reg 1 a" reg_outputen $end
$var reg 6 {" reg_outputenctrl [5:0] $end
$var reg 16 |" reg_waddrx [15:0] $end
$var reg 1 Z" reg_wcebx $end
$upscope $end
$upscope $end
$scope module wbuf_send_0 $end
$var wire 1 " CLK $end
$var wire 8 }" COUNTER0 [7:0] $end
$var wire 16 ~" RADDRX_I [15:0] $end
$var wire 1 & RSTL $end
$var wire 1 { WBUF_BUSY $end
$var wire 6 !# WBUF_EN_CTRL_I [5:0] $end
$var wire 1 "# WBUF_SEND $end
$var wire 1 ## WBUF_SEND_POOL $end
$var wire 1 v module_busy $end
$var wire 1 $# WBUF_POOL_BUSY $end
$var wire 1 %# WBUF_NO_BUSY $end
$var wire 1 &# WBUF_EN_POOL $end
$var wire 1 '# WBUF_EN_NO $end
$var wire 6 (# WBUF_EN_CTRL_POOL [5:0] $end
$var wire 6 )# WBUF_EN_CTRL_NO [5:0] $end
$var wire 6 *# WBUF_EN_CTRL [5:0] $end
$var wire 1 . WBUF_EN $end
$var wire 1 +# RCEBX_POOL $end
$var wire 1 ,# RCEBX_NO $end
$var wire 1 6 RCEBX $end
$var wire 16 -# RADDRX_POOL [15:0] $end
$var wire 16 .# RADDRX_NO [15:0] $end
$var wire 16 /# RADDRX [15:0] $end
$var wire 1 E I_COMPARE_SWITCH $end
$var wire 1 F I_COMPARE_REGEN $end
$var wire 1 G I_COMPARE_MODE $end
$var wire 1 H I_COMPARE_EN $end
$var wire 1 0# COUNTER0_O $end
$scope module wbuf_send_nopool_0 $end
$var wire 1 " CLK $end
$var wire 8 1# COUNTER0 [7:0] $end
$var wire 16 2# RADDRX_I [15:0] $end
$var wire 1 & RSTL $end
$var wire 6 3# WBUF_EN_CTRL_I [5:0] $end
$var wire 1 "# WBUF_SEND $end
$var wire 1 v module_busy $end
$var wire 1 4# start $end
$var wire 6 5# WBUF_EN_CTRL [5:0] $end
$var wire 1 '# WBUF_EN $end
$var wire 1 %# WBUF_BUSY $end
$var wire 1 ,# RCEBX $end
$var wire 16 6# RADDRX [15:0] $end
$var wire 1 0# COUNTER0_O $end
$var reg 3 7# cnt [2:0] $end
$var reg 8 8# counter0 [7:0] $end
$var reg 16 9# reg_raddrx [15:0] $end
$var reg 6 :# reg_wbufenctrl [5:0] $end
$upscope $end
$scope module wbuf_send_pool_0 $end
$var wire 1 " CLK $end
$var wire 8 ;# COUNTER0 [7:0] $end
$var wire 1 H I_COMPARE_EN $end
$var wire 1 F I_COMPARE_REGEN $end
$var wire 1 E I_COMPARE_SWITCH $end
$var wire 16 <# RADDRX_I [15:0] $end
$var wire 1 & RSTL $end
$var wire 6 =# WBUF_EN_CTRL_I [5:0] $end
$var wire 1 ## WBUF_SEND_POOL $end
$var wire 1 v module_busy $end
$var wire 1 ># start $end
$var wire 1 $# WBUF_POOL_BUSY $end
$var wire 6 ?# WBUF_EN_CTRL [5:0] $end
$var wire 1 &# WBUF_EN $end
$var wire 1 +# RCEBX $end
$var wire 16 @# RADDRX [15:0] $end
$var wire 1 G I_COMPARE_MODE $end
$var reg 4 A# cnt [3:0] $end
$var reg 8 B# counter0 [7:0] $end
$var reg 1 C# reg_c_en $end
$var reg 1 D# reg_c_regen $end
$var reg 1 E# reg_c_switch $end
$var reg 16 F# reg_raddrx [15:0] $end
$var reg 1 +# reg_rcebx $end
$var reg 1 &# reg_wbufen $end
$var reg 6 G# reg_wbufenctrl [5:0] $end
$upscope $end
$upscope $end
$upscope $end
$upscope $end
$upscope $end
$enddefinitions $end
#0
$dumpvars
b0 G#
b0 F#
0E#
0D#
0C#
b0 B#
b0 A#
b0 @#
b0 ?#
x>#
bx =#
b0 <#
bx ;#
b0 :#
b0 9#
b0 8#
b0 7#
b0 6#
b0 5#
x4#
bx 3#
b0 2#
bx 1#
00#
b0 /#
b0 .#
b0 -#
1,#
0+#
b0 *#
b0 )#
b0 (#
0'#
0&#
0%#
0$#
x##
x"#
bx !#
b0 ~"
bx }"
b0 |"
b0 {"
0z"
0y"
b0 x"
b0 w"
b0 v"
b0 u"
xt"
b0 s"
bx r"
bx q"
b0 p"
b0 o"
b0 n"
b0 m"
b0 l"
b0 k"
xj"
b0 i"
bx h"
bx g"
0f"
b0 e"
b0 d"
b0 c"
0b"
0a"
0`"
0_"
b0 ^"
b0 ]"
b0 \"
1["
0Z"
b0 Y"
zX"
xW"
xV"
bx U"
bx T"
0S"
b0 R"
0Q"
b0 P"
b0 O"
b0 N"
xM"
b0 L"
bx K"
b0 J"
b0 I"
b0 H"
b0 G"
xF"
b0 E"
bx D"
0C"
0B"
0A"
0@"
0?"
0>"
0="
b0 <"
b0 ;"
b0 :"
19"
08"
b0 7"
x6"
bx 5"
x4"
b0 3"
b0 2"
b0 1"
b0 0"
b0 /"
b0 ."
b0 -"
b0 ,"
b0 +"
b0 *"
b0 )"
b0 ("
b0 '"
b0 &"
b0 %"
b0 $"
0#"
b0 ""
b0 !"
0~
0}
0|
0{
b0 z
b0 y
b0 x
xw
0v
bx u
bx t
zs
zr
bz q
b0 p
zo
zn
zm
zl
zk
bz j
b0 i
bx h
zg
zf
bz e
b0 d
zc
zb
za
z`
z_
bz ^
b0 ]
0\
bx [
b0 Z
b0 Y
b0 X
0W
0V
bx U
bx T
1S
1R
b0 Q
b0 P
0O
0N
0M
0L
0K
0J
0I
0H
0G
0F
0E
0D
0C
b0 B
b0 A
0@
b0 ?
0>
0=
0<
bx ;
b0 :
b0 9
b0 8
07
06
05
04
03
02
01
b0 0
0/
0.
b0 -
0,
0+
0*
0)
b0 (
z'
0&
0%
z$
b0 #
1"
0!
$end
#5
0"
#10
0w
04#
0>#
0j"
0t"
0F"
0M"
0"#
0##
b0 }"
b0 1#
b0 ;#
b0 !#
b0 3#
b0 =#
0V"
0W"
b0 T"
b0 g"
b0 q"
b0 U"
b0 h"
b0 r"
04"
06"
b0 5"
b0 D"
b0 K"
b100000000000000000100000000000000000000000000000000000000000000000000000000000000000000000 ;
b100000000000000000100000000000000000000000000000000000000000000000000000000000000000000000 [
b100000000000000000100000000000000000000000000000000000000000000000000000000000000000000000 u
b100000000000000000100000000000000000000000000000000000000000000000000000000000000000000000 T
b100000000000000000100000000000000000000000000000000000000000000000000000000000000000000000 t
b100000000000000000100000000000000000000000000000000000000000000000000000000000000000000000 U
b100000000000000000100000000000000000000000000000000000000000000000000000000000000000000000 h
1"
#11
1&
#15
0"
#20
b1 Y
b1 ]
b1 i
b1 :
b1 Z
b1 &"
1|
16
1*
1+#
1Z"
b1 /"
1"
#25
0"
#30
1w
b10 Y
b10 ]
b10 i
14#
1"#
b11 }"
b11 1#
b11 ;#
b11 T"
b11 g"
b11 q"
b11 5"
b11 D"
b11 K"
b10 :
b10 Z
b10 &"
b100000000000000000100000000000000000000000000000010000000000000000000000110000000000000000 ;
b100000000000000000100000000000000000000000000000010000000000000000000000110000000000000000 [
b100000000000000000100000000000000000000000000000010000000000000000000000110000000000000000 u
b100000000000000000100000000000000000000000000000010000000000000000000000110000000000000000 T
b100000000000000000100000000000000000000000000000010000000000000000000000110000000000000000 t
b100000000000000000100000000000000000000000000000010000000000000000000000110000000000000000 U
b100000000000000000100000000000000000000000000000010000000000000000000000110000000000000000 h
b1 ."
b10 /"
1"
#35
0"
#40
04#
1v
1{
0F"
1%#
14"
0|
b110000000000000000100000000000000000000000000000010000000000000000000000110000000000000000 ;
b110000000000000000100000000000000000000000000000010000000000000000000000110000000000000000 [
b110000000000000000100000000000000000000000000000010000000000000000000000110000000000000000 u
1.
06
b110000000000000000100000000000000000000000000000010000000000000000000000110000000000000000 U
b110000000000000000100000000000000000000000000000010000000000000000000000110000000000000000 h
b110000000000000000100000000000000000000000000000010000000000000000000000110000000000000000 T
b110000000000000000100000000000000000000000000000010000000000000000000000110000000000000000 t
0,#
1'#
10#
b11 8#
b100 7#
b10 ."
1"
#45
0"
#50
b1 8
b1 $"
b1 /#
b1 .#
b1 6#
b1 9#
b11 7#
1"
#55
0"
#60
b10 8
b10 $"
b10 /#
b10 7#
b10 .#
b10 6#
b10 9#
1"
#65
0"
#70
b11 8
b11 $"
b11 /#
b11 .#
b11 6#
b11 9#
b1 7#
1"
#75
0"
#80
b100 8
b100 $"
b100 /#
b0 7#
b100 .#
b100 6#
b100 9#
1"
#85
0"
#90
b1 -
b1 !"
b1 *#
b101 8
b101 $"
b101 /#
b1 )#
b1 5#
b1 :#
b101 .#
b101 6#
b101 9#
b11 7#
b10 8#
1"
#95
0"
#100
b110 8
b110 $"
b110 /#
b10 7#
b110 .#
b110 6#
b110 9#
1"
#105
0"
#110
b111 8
b111 $"
b111 /#
b111 .#
b111 6#
b111 9#
b1 7#
1"
#115
0"
#120
b1000 8
b1000 $"
b1000 /#
b0 7#
b1000 .#
b1000 6#
b1000 9#
1"
#125
0"
#130
b10 -
b10 !"
b10 *#
b1001 8
b1001 $"
b1001 /#
b10 )#
b10 5#
b10 :#
b1001 .#
b1001 6#
b1001 9#
b11 7#
b1 8#
1"
#135
0"
#140
b1010 8
b1010 $"
b1010 /#
b10 7#
b1010 .#
b1010 6#
b1010 9#
1"
#145
0"
#150
b1011 8
b1011 $"
b1011 /#
b1011 .#
b1011 6#
b1011 9#
b1 7#
1"
#155
0"
#160
1F"
14#
0v
0{
0%#
b1100 8
b1100 $"
b1100 /#
b0 7#
b1100 .#
b1100 6#
b1100 9#
1"
#165
0"
#170
0F"
04#
1v
b11 Y
b11 ]
b11 i
1~
1{
1C"
1%#
b11 :
b11 Z
b11 &"
1|
b0 -
b0 !"
b0 *#
b0 8
b0 $"
b0 /#
b11 /"
b101 H"
09"
1B"
b11 I"
b0 )#
b0 5#
b0 :#
b0 .#
b0 6#
b0 9#
b100 7#
b11 8#
1"
#175
0"
#180
0"#
1V"
0|
b110000000000000000100000010000000000000000000000000000000000000000000000110000000000000000 ;
b110000000000000000100000010000000000000000000000000000000000000000000000110000000000000000 [
b110000000000000000100000010000000000000000000000000000000000000000000000110000000000000000 u
b1 8
b1 $"
b1 /#
b1 9
b1 %"
b1 <"
1D
1C
b110000000000000000100000010000000000000000000000000000000000000000000000110000000000000000 U
b110000000000000000100000010000000000000000000000000000000000000000000000110000000000000000 h
b110000000000000000100000010000000000000000000000000000000000000000000000110000000000000000 T
b110000000000000000100000010000000000000000000000000000000000000000000000110000000000000000 t
b11 7#
b1 .#
b1 6#
b1 9#
b100 H"
b1 ;"
b1 G"
b1 J"
1@"
1>"
b11 ."
1"
#185
0"
#190
0D
b10 9
b10 %"
b10 <"
b10 8
b10 $"
b10 /#
0@"
b10 ;"
b10 G"
b10 J"
b11 H"
b10 .#
b10 6#
b10 9#
b10 7#
1"
#195
0"
#200
b11 8
b11 $"
b11 /#
b11 9
b11 %"
b11 <"
b1 7#
b11 .#
b11 6#
b11 9#
b10 H"
b11 ;"
b11 G"
b11 J"
1"
#205
0"
#210
b100 8
b100 $"
b100 /#
b1 H"
b100 .#
b100 6#
b100 9#
b0 7#
1"
#215
0"
#220
b101 8
b101 $"
b101 /#
b1 -
b1 !"
b1 *#
b100 9
b100 %"
b100 <"
0C
b10 8#
b11 7#
b101 .#
b101 6#
b101 9#
b1 )#
b1 5#
b1 :#
b0 H"
b100 ;"
b100 G"
b100 J"
0>"
1"
#225
0"
#230
1C
1D
b101 9
b101 %"
b101 <"
b110 8
b110 $"
b110 /#
1>"
1@"
b101 ;"
b101 G"
b101 J"
b100 H"
b10 I"
b110 .#
b110 6#
b110 9#
b10 7#
1"
#235
0"
#240
b111 8
b111 $"
b111 /#
b110 9
b110 %"
b110 <"
0D
b1 7#
b111 .#
b111 6#
b111 9#
b11 H"
b110 ;"
b110 G"
b110 J"
0@"
1"
#245
0"
#250
b111 9
b111 %"
b111 <"
b1000 8
b1000 $"
b1000 /#
b111 ;"
b111 G"
b111 J"
b10 H"
b1000 .#
b1000 6#
b1000 9#
b0 7#
1"
#255
0"
#260
b1001 8
b1001 $"
b1001 /#
b10 -
b10 !"
b10 *#
b1 8#
b11 7#
b1001 .#
b1001 6#
b1001 9#
b10 )#
b10 5#
b10 :#
b1 H"
1"
#265
0"
#270
0C
b1000 9
b1000 %"
b1000 <"
b1010 8
b1010 $"
b1010 /#
0>"
b1000 ;"
b1000 G"
b1000 J"
b0 H"
b1010 .#
b1010 6#
b1010 9#
b10 7#
1"
#275
0"
#280
b1011 8
b1011 $"
b1011 /#
b1001 9
b1001 %"
b1001 <"
1D
1C
b1 7#
b1011 .#
b1011 6#
b1011 9#
b1 I"
b100 H"
b1001 ;"
b1001 G"
b1001 J"
1@"
1>"
1"
#285
0"
#290
0{
0%#
0D
b1010 9
b1010 %"
b1010 <"
b1100 8
b1100 $"
b1100 /#
0@"
b1010 ;"
b1010 G"
b1010 J"
b11 H"
b1100 .#
b1100 6#
b1100 9#
b0 7#
1"
#295
0"
#300
0.
16
b0 8
b0 $"
b0 /#
b0 -
b0 !"
b0 *#
b1011 9
b1011 %"
b1011 <"
1,#
0'#
00#
b0 8#
b1101 .#
b1101 6#
b1101 9#
b11 )#
b11 5#
b11 :#
b10 H"
b1011 ;"
b1011 G"
b1011 J"
1"
#305
0"
#310
b1 H"
1"
#315
0"
#320
1F"
1j"
0v
0~
0C"
b1100 9
b1100 %"
b1100 <"
0C
b0 H"
b1100 ;"
b1100 G"
b1100 J"
0>"
1"
#325
0"
#330
0F"
0j"
1v
b100 Y
b100 ]
b100 i
1~
1}
1C"
1`"
b100 :
b100 Z
b100 &"
1|
b0 9
b0 %"
b0 <"
1@
0*
b100 /"
b0 ;"
b0 G"
b0 J"
b101 H"
b11 I"
b100 m"
0["
1b"
1f"
b11 n"
1"
#335
0"
#340
04"
0|
b100000000000000000100000010000000000000000000000000000000000000000000000110000000000000000 ;
b100000000000000000100000010000000000000000000000000000000000000000000000110000000000000000 [
b100000000000000000100000010000000000000000000000000000000000000000000000110000000000000000 u
b1 0
b1 ""
b1 ^"
b1 9
b1 %"
b1 <"
1D
1C
b100000000000000000100000010000000000000000000000000000000000000000000000110000000000000000 U
b100000000000000000100000010000000000000000000000000000000000000000000000110000000000000000 h
b100000000000000000100000010000000000000000000000000000000000000000000000110000000000000000 T
b100000000000000000100000010000000000000000000000000000000000000000000000110000000000000000 t
b11 m"
b1 ]"
b1 k"
b1 p"
b100 H"
b1 ;"
b1 G"
b1 J"
1@"
1>"
b100 ."
1"
#345
0"
#350
0D
b10 9
b10 %"
b10 <"
b10 0
b10 ""
b10 ^"
0@"
b10 ;"
b10 G"
b10 J"
b11 H"
b10 ]"
b10 k"
b10 p"
b10 m"
1"
#355
0"
#360
b11 0
b11 ""
b11 ^"
b11 9
b11 %"
b11 <"
b1 m"
b11 ]"
b11 k"
b11 p"
b10 H"
b11 ;"
b11 G"
b11 J"
1"
#365
0"
#370
b100 0
b100 ""
b100 ^"
b1 H"
b100 ]"
b100 k"
b100 p"
b0 m"
1"
#375
0"
#380
b101 0
b101 ""
b101 ^"
b1 ?
b1 '"
b1 e"
b100 9
b100 %"
b100 <"
0C
b10 n"
b11 m"
b101 ]"
b101 k"
b101 p"
b1 d"
b1 l"
b1 o"
b0 H"
b100 ;"
b100 G"
b100 J"
0>"
1"
#385
0"
#390
1C
1D
b101 9
b101 %"
b101 <"
b110 0
b110 ""
b110 ^"
1>"
1@"
b101 ;"
b101 G"
b101 J"
b100 H"
b10 I"
b110 ]"
b110 k"
b110 p"
b10 m"
1"
#395
0"
#400
b111 0
b111 ""
b111 ^"
b110 9
b110 %"
b110 <"
0D
b1 m"
b111 ]"
b111 k"
b111 p"
b11 H"
b110 ;"
b110 G"
b110 J"
0@"
1"
#405
0"
#410
b111 9
b111 %"
b111 <"
b1000 0
b1000 ""
b1000 ^"
b111 ;"
b111 G"
b111 J"
b10 H"
b1000 ]"
b1000 k"
b1000 p"
b0 m"
1"
#415
0"
#420
b1001 0
b1001 ""
b1001 ^"
b10 ?
b10 '"
b10 e"
b1 n"
b11 m"
b1001 ]"
b1001 k"
b1001 p"
b10 d"
b10 l"
b10 o"
b1 H"
1"
#425
0"
#430
0C
b1000 9
b1000 %"
b1000 <"
b1010 0
b1010 ""
b1010 ^"
0>"
b1000 ;"
b1000 G"
b1000 J"
b0 H"
b1010 ]"
b1010 k"
b1010 p"
b10 m"
1"
#435
0"
#440
b1011 0
b1011 ""
b1011 ^"
b1001 9
b1001 %"
b1001 <"
1D
1C
b1 m"
b1011 ]"
b1011 k"
b1011 p"
b1 I"
b100 H"
b1001 ;"
b1001 G"
b1001 J"
1@"
1>"
1"
#445
0"
#450
0}
0`"
0D
b1010 9
b1010 %"
b1010 <"
b1100 0
b1100 ""
b1100 ^"
0@"
b1010 ;"
b1010 G"
b1010 J"
b11 H"
b1100 ]"
b1100 k"
b1100 p"
b0 m"
1"
#455
0"
#460
b0 ?
b0 '"
b0 e"
0@
1*
b0 0
b0 ""
b0 ^"
b1011 9
b1011 %"
b1011 <"
1["
0b"
0f"
b0 n"
b10 H"
b1011 ;"
b1011 G"
b1011 J"
1"
#465
0"
#470
b1 H"
1"
#475
0"
#480
1j"
0v
0~
0C"
b1100 9
b1100 %"
b1100 <"
0C
b0 H"
b1100 ;"
b1100 G"
b1100 J"
0>"
1"
#485
0"
#490
0j"
1v
b101 Y
b101 ]
b101 i
1}
1`"
b101 :
b101 Z
b101 &"
1|
b0 9
b0 %"
b0 <"
1@
0*
b101 /"
19"
0B"
b0 I"
b0 d"
b0 l"
b0 o"
b0 ]"
b0 k"
b0 p"
b100 m"
0["
1b"
1f"
b11 n"
1"
#495
0"
