verilog/exe旧/wave.vcd
$date
	Wed Feb 10 14:59:58 2021
$end
$version
	Icarus Verilog
$end
$timescale
	1s
$end
$scope module IP2_TEST $end
$scope module ip2_0 $end
$var wire 1 ! BANKI $end
$var wire 1 " CLK $end
$var wire 256 # DI [255:0] $end
$var wire 1 $ PURGE $end
$var wire 1 % RCEBI $end
$var wire 1 & RSTL $end
$var wire 1 ' SEQ_PURGE $end
$var wire 14 ( WADDRI [13:0] $end
$var wire 1 ) WCEBI $end
$var wire 1 * WCEBX $end
$var wire 1 + WBUF_SWITCH $end
$var wire 1 , WBUF_PURGE $end
$var wire 6 - WBUF_EN_CTRL [5:0] $end
$var wire 1 . WBUF_EN $end
$var wire 1 / WBUF_ALL_EN $end
$var wire 16 0 WADDRX [15:0] $end
$var wire 1 1 SHIFT_MODE $end
$var wire 1 2 RESULT_REQ $end
$var wire 1 3 RESULT_PURGE $end
$var wire 1 4 REQW $end
$var wire 1 5 RCEBX0 $end
$var wire 1 6 RCEBX $end
$var wire 1 7 RCEBW $end
$var wire 16 8 RADDRX [15:0] $end
$var wire 16 9 RADDRW [15:0] $end
$var wire 14 : RADDRI [13:0] $end
$var wire 256 ; QI [255:0] $end
$var wire 1 < O_COMPARE_SWITCH $end
$var wire 1 = O_COMPARE_MODE $end
$var wire 1 > O_COMPARE_EN $end
$var wire 6 ? OUTPUT_EN_CTRL [5:0] $end
$var wire 1 @ OUTPUT_EN $end
$var wire 4 A OLSB [3:0] $end
$var wire 2 B NL_SEL [1:0] $end
$var wire 1 C NL_EN $end
$var wire 1 D MAC_EN $end
$var wire 1 E I_COMPARE_SWITCH $end
$var wire 1 F I_COMPARE_REGEN $end
$var wire 1 G I_COMPARE_MODE $end
$var wire 1 H I_COMPARE_EN $end
$var wire 1 I FEEDBACK_MODE $end
$var wire 1 J FC_WEIGHT_EN $end
$var wire 1 K CONV_FC_MODE $end
$var wire 1 L CONF_EN $end
$var wire 1 M CAL_MODE $end
$var wire 1 N BANKX $end
$var wire 1 O BANKW $end
$scope module memi_0 $end
$var wire 1 ! BANK $end
$var wire 1 " CLK $end
$var wire 256 P DW [255:0] $end
$var wire 1 % RCEB $end
$var wire 14 Q WA [13:0] $end
$var wire 1 ) WCEB $end
$var wire 1 R we11b $end
$var wire 1 S we10b $end
$var wire 1 T we01b $end
$var wire 1 U we00b $end
$var wire 128 V q11 [127:0] $end
$var wire 128 W q10 [127:0] $end
$var wire 128 X q01 [127:0] $end
$var wire 128 Y q00 [127:0] $end
$var wire 1 Z ce11b $end
$var wire 1 [ ce10b $end
$var wire 1 \ ce01b $end
$var wire 1 ] ce00b $end
$var wire 13 ^ adrs1 [12:0] $end
$var wire 13 _ adrs0 [12:0] $end
$var wire 14 ` RA [13:0] $end
$var wire 256 a QW [255:0] $end
$var wire 1 b BlockW $end
$var reg 1 c bnk $end
$scope module bank0_ram0 $end
$var wire 13 d A [12:0] $end
$var wire 13 e AM [12:0] $end
$var wire 1 f AWT $end
$var wire 1 g BIST $end
$var wire 1 h BWEB $end
$var wire 1 i BWEBM $end
$var wire 1 ] CEB $end
$var wire 1 j CEBM $end
$var wire 1 " CLK $end
$var wire 256 k D [255:0] $end
$var wire 128 l DM [127:0] $end
$var wire 1 m PD $end
$var wire 1 U WEB $end
$var wire 1 n WEBM $end
$var reg 128 o Q [127:0] $end
$upscope $end
$scope module bank0_ram1 $end
$var wire 13 p A [12:0] $end
$var wire 13 q AM [12:0] $end
$var wire 1 r AWT $end
$var wire 1 s BIST $end
$var wire 1 t BWEB $end
$var wire 1 u BWEBM $end
$var wire 1 \ CEB $end
$var wire 1 v CEBM $end
$var wire 1 " CLK $end
$var wire 256 w D [255:0] $end
$var wire 128 x DM [127:0] $end
$var wire 1 y PD $end
$var wire 1 T WEB $end
$var wire 1 z WEBM $end
$var reg 128 { Q [127:0] $end
$upscope $end
$scope module bank1_ram0 $end
$var wire 13 | A [12:0] $end
$var wire 13 } AM [12:0] $end
$var wire 1 ~ AWT $end
$var wire 1 !" BIST $end
$var wire 1 "" BWEB $end
$var wire 1 #" BWEBM $end
$var wire 1 [ CEB $end
$var wire 1 $" CEBM $end
$var wire 1 " CLK $end
$var wire 256 %" D [255:0] $end
$var wire 128 &" DM [127:0] $end
$var wire 1 '" PD $end
$var wire 1 S WEB $end
$var wire 1 (" WEBM $end
$var reg 128 )" Q [127:0] $end
$upscope $end
$scope module bank1_ram1 $end
$var wire 13 *" A [12:0] $end
$var wire 13 +" AM [12:0] $end
$var wire 1 ," AWT $end
$var wire 1 -" BIST $end
$var wire 1 ." BWEB $end
$var wire 1 /" BWEBM $end
$var wire 1 Z CEB $end
$var wire 1 0" CEBM $end
$var wire 1 " CLK $end
$var wire 256 1" D [255:0] $end
$var wire 128 2" DM [127:0] $end
$var wire 1 3" PD $end
$var wire 1 R WEB $end
$var wire 1 4" WEBM $end
$var reg 128 5" Q [127:0] $end
$upscope $end
$upscope $end
$scope module sequencer_0 $end
$var wire 1 " CLK $end
$var wire 1 6" MBUSYW $end
$var wire 1 7" MBUSYXI $end
$var wire 1 8" MBUSYXO $end
$var wire 6 9" OUTPUT_EN_CTRL [5:0] $end
$var wire 1 ' PURGE $end
$var wire 256 :" QI [255:0] $end
$var wire 16 ;" RADDRW [15:0] $end
$var wire 16 <" RADDRX [15:0] $end
$var wire 1 % RCEBI $end
$var wire 1 & RSTL $end
$var wire 16 =" WADDRX [15:0] $end
$var wire 6 >" WBUF_EN_CTRL [5:0] $end
$var wire 1 + WBUF_SWITCH $end
$var wire 1 * WCEBX $end
$var wire 1 , WBUF_PURGE $end
$var wire 1 . WBUF_EN $end
$var wire 1 / WBUF_ALL_EN $end
$var wire 1 1 SHIFT_MODE $end
$var wire 1 ?" SEQ_STARTX_OUT $end
$var wire 1 @" SEQ_STARTX $end
$var wire 1 A" SEQ_STARTW $end
$var wire 1 B" SEQ_LOAD_I $end
$var wire 1 C" SEQ_FIN $end
$var wire 1 2 RESULT_REQ $end
$var wire 1 3 RESULT_PURGE $end
$var wire 1 D" REQX $end
$var wire 1 4 REQW $end
$var wire 1 5 RCEBX0 $end
$var wire 1 6 RCEBX $end
$var wire 1 7 RCEBW $end
$var wire 14 E" RADDRI [13:0] $end
$var wire 1 < O_COMPARE_SWITCH $end
$var wire 1 = O_COMPARE_MODE $end
$var wire 1 > O_COMPARE_EN $end
$var wire 1 @ OUTPUT_EN $end
$var wire 4 F" OLSB [3:0] $end
$var wire 2 G" NL_SEL [1:0] $end
$var wire 2 H" NL_LOOP_SEL [1:0] $end
$var wire 1 C NL_EN $end
$var wire 1 D MAC_EN $end
$var wire 1 E I_COMPARE_SWITCH $end
$var wire 1 F I_COMPARE_REGEN $end
$var wire 1 G I_COMPARE_MODE $end
$var wire 1 H I_COMPARE_EN $end
$var wire 1 I FEEDBACK_MODE $end
$var wire 1 J FC_WEIGHT_EN $end
$var wire 1 K CONV_FC_MODE $end
$var wire 1 L CONF_EN $end
$var wire 1 M CAL_MODE $end
$var wire 1 N BANKX $end
$var wire 1 O BANKW $end
$var reg 16 I" counter0 [15:0] $end
$var reg 16 J" counter1 [15:0] $end
$var reg 16 K" counter2 [15:0] $end
$var reg 16 L" counter3 [15:0] $end
$var reg 32 M" pc [31:0] $end
$var reg 256 N" qi_latch [255:0] $end
$var reg 6 O" reg_outputenctrl [5:0] $end
$var reg 6 P" reg_outputenctrl_latch [5:0] $end
$var reg 16 Q" reg_raddrw [15:0] $end
$var reg 16 R" reg_raddrw_bak [15:0] $end
$var reg 16 S" reg_raddrw_latch [15:0] $end
$var reg 16 T" reg_raddrx [15:0] $end
$var reg 16 U" reg_raddrx_bak [15:0] $end
$var reg 16 V" reg_raddrx_latch [15:0] $end
$var reg 1 W" reg_switch $end
$var reg 1 X" reg_switch_latch $end
$var reg 16 Y" reg_waddrx [15:0] $end
$var reg 16 Z" reg_waddrx_latch [15:0] $end
$var reg 6 [" reg_wbufenctrl [5:0] $end
$var reg 6 \" reg_wbufenctrl_latch [5:0] $end
$upscope $end
$upscope $end
$upscope $end
$enddefinitions $end
#0
$dumpvars
b0 \"
b0 ["
b0 Z"
b0 Y"
0X"
0W"
b0 V"
b0 U"
b0 T"
b0 S"
b0 R"
b0 Q"
b0 P"
b0 O"
b0 N"
b0 M"
b0 L"
b0 K"
b0 J"
b0 I"
b0 H"
b0 G"
b0 F"
b0 E"
0D"
0C"
0B"
0A"
0@"
0?"
b0 >"
b0 ="
b0 <"
b0 ;"
bx :"
b0 9"
z8"
z7"
z6"
bx 5"
z4"
z3"
bz 2"
b0 1"
z0"
z/"
z."
z-"
z,"
bz +"
b0 *"
bx )"
z("
z'"
bz &"
b0 %"
z$"
z#"
z""
z!"
z~
bz }
b0 |
bx {
zz
zy
bz x
b0 w
zv
zu
zt
zs
zr
bz q
b0 p
bx o
zn
zm
bz l
b0 k
zj
zi
zh
zg
zf
bz e
b0 d
0c
0b
bx a
b0 `
b0 _
b0 ^
0]
0\
0[
1Z
bx Y
bx X
bx W
bx V
1U
1T
0S
1R
b0 Q
b0 P
0O
0N
0M
0L
0K
0J
0I
0H
0G
0F
0E
0D
0C
b0 B
b0 A
0@
b0 ?
0>
0=
0<
bx ;
b0 :
b0 9
b0 8
07
06
05
04
03
02
01
b0 0
0/
0.
b0 -
0,
0+
0*
0)
b0 (
z'
0&
0%
z$
b0 #
1"
0!
$end
#5
0"
#10
b10000000000000000010000000000000000000000000000000000000000000000000000000000000000000000000000000000000000000000000000000000000100000000000000000100000000000000000000000000000000000000000000000000000000000000000000000 ;
b10000000000000000010000000000000000000000000000000000000000000000000000000000000000000000000000000000000000000000000000000000000100000000000000000100000000000000000000000000000000000000000000000000000000000000000000000 a
b10000000000000000010000000000000000000000000000000000000000000000000000000000000000000000000000000000000000000000000000000000000100000000000000000100000000000000000000000000000000000000000000000000000000000000000000000 :"
b100000000000000000100000000000000000000000000000000000000000000000000000000000000000000000 V
b100000000000000000100000000000000000000000000000000000000000000000000000000000000000000000 5"
b100000000000000000100000000000000000000000000000000000000000000000000000000000000000000000 W
b100000000000000000100000000000000000000000000000000000000000000000000000000000000000000000 )"
b100000000000000000100000000000000000000000000000000000000000000000000000000000000000000000 X
b100000000000000000100000000000000000000000000000000000000000000000000000000000000000000000 {
b100000000000000000100000000000000000000000000000000000000000000000000000000000000000000000 Y
b100000000000000000100000000000000000000000000000000000000000000000000000000000000000000000 o
1"
#11
1&
#15
0"
#20
b1 :
b1 `
b1 E"
b1 M"
1"
#25
0"
#30
b1 _
b1 d
b1 p
b10 :
b10 `
b10 E"
b10 M"
1"
#35
0"
#40
b11 :
b11 `
b11 E"
b10000000000000000010000000000000000000000000000001000000000000000000000011000000000000000000000000000000000000000000000000000000100000000000000000100000000000000000000000000000010000000000000000000000110000000000000000 ;
b10000000000000000010000000000000000000000000000001000000000000000000000011000000000000000000000000000000000000000000000000000000100000000000000000100000000000000000000000000000010000000000000000000000110000000000000000 a
b10000000000000000010000000000000000000000000000001000000000000000000000011000000000000000000000000000000000000000000000000000000100000000000000000100000000000000000000000000000010000000000000000000000110000000000000000 :"
b100000000000000000100000000000000000000000000000010000000000000000000000110000000000000000 Y
b100000000000000000100000000000000000000000000000010000000000000000000000110000000000000000 o
b100000000000000000100000000000000000000000000000010000000000000000000000110000000000000000 X
b100000000000000000100000000000000000000000000000010000000000000000000000110000000000000000 {
b11 M"
1"
#45
0"
#50
b10 _
b10 d
b10 p
b100 :
b100 `
b100 E"
b11 Q"
b100 M"
1"
#55
0"
#60
b101 :
b101 `
b101 E"
b11000000000000000010000000000000000000000000000001000000000000000000000011000000000000000000000000000000000000000000000000000000110000000000000000100000000000000000000000000000010000000000000000000000110000000000000000 ;
b11000000000000000010000000000000000000000000000001000000000000000000000011000000000000000000000000000000000000000000000000000000110000000000000000100000000000000000000000000000010000000000000000000000110000000000000000 a
b11000000000000000010000000000000000000000000000001000000000000000000000011000000000000000000000000000000000000000000000000000000110000000000000000100000000000000000000000000000010000000000000000000000110000000000000000 :"
b110000000000000000100000000000000000000000000000010000000000000000000000110000000000000000 Y
b110000000000000000100000000000000000000000000000010000000000000000000000110000000000000000 o
b110000000000000000100000000000000000000000000000010000000000000000000000110000000000000000 X
b110000000000000000100000000000000000000000000000010000000000000000000000110000000000000000 {
b101 M"
b110 Q"
1"
#65
0"
#70
b11 _
b11 d
b11 p
b110 :
b110 `
b110 E"
b1001 Q"
b110 M"
1"
#75
0"
#80
b111 :
b111 `
b111 E"
b11000000000000000010000001000000000000000000000000000000000000000000000011000000000000000000000000000000000000000000000000000000110000000000000000100000010000000000000000000000000000000000000000000000110000000000000000 ;
b11000000000000000010000001000000000000000000000000000000000000000000000011000000000000000000000000000000000000000000000000000000110000000000000000100000010000000000000000000000000000000000000000000000110000000000000000 a
b11000000000000000010000001000000000000000000000000000000000000000000000011000000000000000000000000000000000000000000000000000000110000000000000000100000010000000000000000000000000000000000000000000000110000000000000000 :"
b110000000000000000100000010000000000000000000000000000000000000000000000110000000000000000 Y
b110000000000000000100000010000000000000000000000000000000000000000000000110000000000000000 o
b110000000000000000100000010000000000000000000000000000000000000000000000110000000000000000 X
b110000000000000000100000010000000000000000000000000000000000000000000000110000000000000000 {
b111 M"
b1100 Q"
1"
#85
0"
#90
b100 _
b100 d
b100 p
b1000 :
b1000 `
b1000 E"
b100 O"
b1111 Q"
b1000 M"
1"
#95
0"
#100
b1001 :
b1001 `
b1001 E"
b10000000000000000010000001000000000000000000000000000000000000000000000011000000000000000000000000000000000000000000000000000000100000000000000000100000010000000000000000000000000000000000000000000000110000000000000000 ;
b10000000000000000010000001000000000000000000000000000000000000000000000011000000000000000000000000000000000000000000000000000000100000000000000000100000010000000000000000000000000000000000000000000000110000000000000000 a
b10000000000000000010000001000000000000000000000000000000000000000000000011000000000000000000000000000000000000000000000000000000100000000000000000100000010000000000000000000000000000000000000000000000110000000000000000 :"
b100000000000000000100000010000000000000000000000000000000000000000000000110000000000000000 Y
b100000000000000000100000010000000000000000000000000000000000000000000000110000000000000000 o
b100000000000000000100000010000000000000000000000000000000000000000000000110000000000000000 X
b100000000000000000100000010000000000000000000000000000000000000000000000110000000000000000 {
b1001 M"
b10010 Q"
b1000 O"
1"
#105
0"
#110
b101 _
b101 d
b101 p
b1010 :
b1010 `
b1010 E"
b1100 O"
b10101 Q"
b1010 M"
1"
#115
0"
#120
b1011 :
b1011 `
b1011 E"
b10000000000000000010000000000000000000000000000000000000000000000000000000000000000000000000000000000000000000000000000000000000100000000000000000100000000000000000000000000000000000000000000000000000000000000000000000 ;
b10000000000000000010000000000000000000000000000000000000000000000000000000000000000000000000000000000000000000000000000000000000100000000000000000100000000000000000000000000000000000000000000000000000000000000000000000 a
b10000000000000000010000000000000000000000000000000000000000000000000000000000000000000000000000000000000000000000000000000000000100000000000000000100000000000000000000000000000000000000000000000000000000000000000000000 :"
b100000000000000000100000000000000000000000000000000000000000000000000000000000000000000000 Y
b100000000000000000100000000000000000000000000000000000000000000000000000000000000000000000 o
b100000000000000000100000000000000000000000000000000000000000000000000000000000000000000000 X
b100000000000000000100000000000000000000000000000000000000000000000000000000000000000000000 {
b1011 M"
b11000 Q"
b10000 O"
1"
#125
0"
#130
b110 _
b110 d
b110 p
b1100 :
b1100 `
b1100 E"
b1100 M"
1"
#135
0"
#140
b1101 :
b1101 `
b1101 E"
b1000000000000000010000000000000000010000000000000000000000000000000000000000000000000000011000000000000000000000000000000000000010000000000000000100000000000000000100000000000000000000000000000000000000000000000000000110000000000000000 ;
b1000000000000000010000000000000000010000000000000000000000000000000000000000000000000000011000000000000000000000000000000000000010000000000000000100000000000000000100000000000000000000000000000000000000000000000000000110000000000000000 a
b1000000000000000010000000000000000010000000000000000000000000000000000000000000000000000011000000000000000000000000000000000000010000000000000000100000000000000000100000000000000000000000000000000000000000000000000000110000000000000000 :"
b10000000000000000100000000000000000100000000000000000000000000000000000000000000000000000110000000000000000 Y
b10000000000000000100000000000000000100000000000000000000000000000000000000000000000000000110000000000000000 o
b10000000000000000100000000000000000100000000000000000000000000000000000000000000000000000110000000000000000 X
b10000000000000000100000000000000000100000000000000000000000000000000000000000000000000000110000000000000000 {
b1101 M"
1"
#145
0"
#150
b111 _
b111 d
b111 p
b1110 :
b1110 `
b1110 E"
b11011 Q"
b1110 M"
1"
#155
0"
#160
b1111 :
b1111 `
b1111 E"
b10000000000000000010000000000000000010000000000000000000000000000000000000000000000000000011000000000000000000000000000000000000100000000000000000100000000000000000100000000000000000000000000000000000000000000000000000110000000000000000 ;
b10000000000000000010000000000000000010000000000000000000000000000000000000000000000000000011000000000000000000000000000000000000100000000000000000100000000000000000100000000000000000000000000000000000000000000000000000110000000000000000 a
b10000000000000000010000000000000000010000000000000000000000000000000000000000000000000000011000000000000000000000000000000000000100000000000000000100000000000000000100000000000000000000000000000000000000000000000000000110000000000000000 :"
b100000000000000000100000000000000000100000000000000000000000000000000000000000000000000000110000000000000000 Y
b100000000000000000100000000000000000100000000000000000000000000000000000000000000000000000110000000000000000 o
b100000000000000000100000000000000000100000000000000000000000000000000000000000000000000000110000000000000000 X
b100000000000000000100000000000000000100000000000000000000000000000000000000000000000000000110000000000000000 {
b1111 M"
b11110 Q"
1"
#165
0"
#170
b1000 _
b1000 d
b1000 p
b10000 :
b10000 `
b10000 E"
b100001 Q"
b10000 M"
1"
#175
0"
#180
b10001 :
b10001 `
b10001 E"
b100000000000000000010000000000000000010000000000000000000000000000000000000000000000000000011000000000000000000000000000000000001000000000000000000100000000000000000100000000000000000000000000000000000000000000000000000110000000000000000 ;
b100000000000000000010000000000000000010000000000000000000000000000000000000000000000000000011000000000000000000000000000000000001000000000000000000100000000000000000100000000000000000000000000000000000000000000000000000110000000000000000 a
b100000000000000000010000000000000000010000000000000000000000000000000000000000000000000000011000000000000000000000000000000000001000000000000000000100000000000000000100000000000000000000000000000000000000000000000000000110000000000000000 :"
b1000000000000000000100000000000000000100000000000000000000000000000000000000000000000000000110000000000000000 Y
b1000000000000000000100000000000000000100000000000000000000000000000000000000000000000000000110000000000000000 o
b1000000000000000000100000000000000000100000000000000000000000000000000000000000000000000000110000000000000000 X
b1000000000000000000100000000000000000100000000000000000000000000000000000000000000000000000110000000000000000 {
b10001 M"
b100100 Q"
1"
#185
0"
#190
b1001 _
b1001 d
b1001 p
b10010 :
b10010 `
b10010 E"
b100111 Q"
b10010 M"
1"
#195
0"
#200
b10011 :
b10011 `
b10011 E"
b10000000000000000010000000000000000000000000000000000000000000000000000011000000000000000000000000000000000000000000000000000000100000000000000000100000000000000000000000000000000000000000000000000000110000000000000000 ;
b10000000000000000010000000000000000000000000000000000000000000000000000011000000000000000000000000000000000000000000000000000000100000000000000000100000000000000000000000000000000000000000000000000000110000000000000000 a
b10000000000000000010000000000000000000000000000000000000000000000000000011000000000000000000000000000000000000000000000000000000100000000000000000100000000000000000000000000000000000000000000000000000110000000000000000 :"
b100000000000000000100000000000000000000000000000000000000000000000000000110000000000000000 Y
b100000000000000000100000000000000000000000000000000000000000000000000000110000000000000000 o
b100000000000000000100000000000000000000000000000000000000000000000000000110000000000000000 X
b100000000000000000100000000000000000000000000000000000000000000000000000110000000000000000 {
b10011 M"
b101010 Q"
1"
#205
0"
#210
b1010 _
b1010 d
b1010 p
b10100 :
b10100 `
b10100 E"
b101101 Q"
b10100 M"
1"
#215
0"
#220
b10101 :
b10101 `
b10101 E"
b10000000000000000010000000000000000000000000000000000000000000000000000000000000000000000000000000000000000000000000000000000000100000000000000000100000000000000000000000000000000000000000000000000000000000000000000000 ;
b10000000000000000010000000000000000000000000000000000000000000000000000000000000000000000000000000000000000000000000000000000000100000000000000000100000000000000000000000000000000000000000000000000000000000000000000000 a
b10000000000000000010000000000000000000000000000000000000000000000000000000000000000000000000000000000000000000000000000000000000100000000000000000100000000000000000000000000000000000000000000000000000000000000000000000 :"
b100000000000000000100000000000000000000000000000000000000000000000000000000000000000000000 Y
b100000000000000000100000000000000000000000000000000000000000000000000000000000000000000000 o
b100000000000000000100000000000000000000000000000000000000000000000000000000000000000000000 X
b100000000000000000100000000000000000000000000000000000000000000000000000000000000000000000 {
b10101 M"
b110000 Q"
1"
#225
0"
#230
b1011 _
b1011 d
b1011 p
b10110 :
b10110 `
b10110 E"
b10110 M"
1"
#235
0"
#240
b10111 :
b10111 `
b10111 E"
b10111 M"
1"
#245
0"
#250
b1100 _
b1100 d
b1100 p
b11000 :
b11000 `
b11000 E"
b11000 M"
1"
#255
0"
#260
b11001 :
b11001 `
b11001 E"
b11001 M"
1"
#265
0"
#270
b1101 _
b1101 d
b1101 p
b11010 :
b11010 `
b11010 E"
b11010 M"
1"
#275
0"
#280
b11011 :
b11011 `
b11011 E"
bx ;
bx a
bx :"
bx Y
bx o
bx X
bx {
b11011 M"
1"
#285
0"
#290
b1110 _
b1110 d
b1110 p
b11100 :
b11100 `
b11100 E"
b11100 M"
1"
#295
0"
#300
b11101 :
b11101 `
b11101 E"
b11101 M"
1"
#305
0"
#310
b1111 _
b1111 d
b1111 p
b11110 :
b11110 `
b11110 E"
b11110 M"
1"
#315
0"
#320
b11111 :
b11111 `
b11111 E"
b11111 M"
1"
#325
0"
#330
b10000 _
b10000 d
b10000 p
b100000 :
b100000 `
b100000 E"
b100000 M"
1"
#335
0"
#340
b100001 :
b100001 `
b100001 E"
b100001 M"
1"
#345
0"
#350
b10001 _
b10001 d
b10001 p
b100010 :
b100010 `
b100010 E"
b100010 M"
1"
#355
0"
#360
b100011 :
b100011 `
b100011 E"
b100011 M"
1"
#365
0"
#370
b10010 _
b10010 d
b10010 p
b100100 :
b100100 `
b100100 E"
b100100 M"
1"
#375
0"
#380
b100101 :
b100101 `
b100101 E"
b100101 M"
1"
#385
0"
#390
b10011 _
b10011 d
b10011 p
b100110 :
b100110 `
b100110 E"
b100110 M"
1"
#395
0"
#400
b100111 :
b100111 `
b100111 E"
b100111 M"
1"
#405
0"
#410
b10100 _
b10100 d
b10100 p
b101000 :
b101000 `
b101000 E"
b101000 M"
1"
#415
0"
#420
b101001 :
b101001 `
b101001 E"
b101001 M"
1"
#425
0"
#430
b10101 _
b10101 d
b10101 p
b101010 :
b101010 `
b101010 E"
b101010 M"
1"
#435
0"
#440
b101011 :
b101011 `
b101011 E"
b101011 M"
1"
#445
0"
#450
b10110 _
b10110 d
b10110 p
b101100 :
b101100 `
b101100 E"
b101100 M"
1"
#455
0"
#460
b101101 :
b101101 `
b101101 E"
b101101 M"
1"
#465
0"
#470
b10111 _
b10111 d
b10111 p
b101110 :
b101110 `
b101110 E"
b101110 M"
1"
#475
0"
#480
b101111 :
b101111 `
b101111 E"
b101111 M"
1"
#485
0"
#490
b11000 _
b11000 d
b11000 p
b110000 :
b110000 `
b110000 E"
b110000 M"
1"
#495
0"
#500
b110001 :
b110001 `
b110001 E"
b110001 M"
1"
#505
0"
#510
b11001 _
b11001 d
b11001 p
b110010 :
b110010 `
b110010 E"
b110010 M"
1"
#515
0"
#520
b110011 :
b110011 `
b110011 E"
b110011 M"
1"
#525
0"
#530
b11010 _
b11010 d
b11010 p
b110100 :
b110100 `
b110100 E"
b110100 M"
1"
#535
0"
#540
b110101 :
b110101 `
b110101 E"
b110101 M"
1"
#545
0"
#550
b11011 _
b11011 d
b11011 p
b110110 :
b110110 `
b110110 E"
b110110 M"
1"
#555
0"
#560
b110111 :
b110111 `
b110111 E"
b110111 M"
1"
#565
0"
#570
b11100 _
b11100 d
b11100 p
b111000 :
b111000 `
b111000 E"
b111000 M"
1"
#575
0"
#580
b111001 :
b111001 `
b111001 E"
b111001 M"
1"
#585
0"
#590
b11101 _
b11101 d
b11101 p
b111010 :
b111010 `
b111010 E"
b111010 M"
1"
#595
0"
#600
b111011 :
b111011 `
b111011 E"
b111011 M"
1"
#605
0"
#610
b11110 _
b11110 d
b11110 p
b111100 :
b111100 `
b111100 E"
b111100 M"
1"
#615
0"
#620
b111101 :
b111101 `
b111101 E"
b111101 M"
1"
#625
0"
#630
b11111 _
b11111 d
b11111 p
b111110 :
b111110 `
b111110 E"
b111110 M"
1"
#635
0"
#640
b111111 :
b111111 `
b111111 E"
b111111 M"
1"
#645
0"
#650
b100000 _
b100000 d
b100000 p
b1000000 :
b1000000 `
b1000000 E"
b1000000 M"
1"
#655
0"
#660
b1000001 :
b1000001 `
b1000001 E"
b1000001 M"
1"
#665
0"
#670
b100001 _
b100001 d
b100001 p
b1000010 :
b1000010 `
b1000010 E"
b1000010 M"
1"
#675
0"
#680
b1000011 :
b1000011 `
b1000011 E"
b1000011 M"
1"
#685
0"
#690
b100010 _
b100010 d
b100010 p
b1000100 :
b1000100 `
b1000100 E"
b1000100 M"
1"
#695
0"
#700
b1000101 :
b1000101 `
b1000101 E"
b1000101 M"
1"
#705
0"
#710
b100011 _
b100011 d
b100011 p
b1000110 :
b1000110 `
b1000110 E"
b1000110 M"
1"
#715
0"
#720
b1000111 :
b1000111 `
b1000111 E"
b1000111 M"
1"
#725
0"
#730
b100100 _
b100100 d
b100100 p
b1001000 :
b1001000 `
b1001000 E"
b1001000 M"
1"
#735
0"
#740
b1001001 :
b1001001 `
b1001001 E"
b1001001 M"
1"
#745
0"
#750
b100101 _
b100101 d
b100101 p
b1001010 :
b1001010 `
b1001010 E"
b1001010 M"
1"
#755
0"
#760
b1001011 :
b1001011 `
b1001011 E"
b1001011 M"
1"
#765
0"
#770
b100110 _
b100110 d
b100110 p
b1001100 :
b1001100 `
b1001100 E"
b1001100 M"
1"
#775
0"
#780
b1001101 :
b1001101 `
b1001101 E"
b1001101 M"
1"
#785
0"
#790
b100111 _
b100111 d
b100111 p
b1001110 :
b1001110 `
b1001110 E"
b1001110 M"
1"
#795
0"
#800
b1001111 :
b1001111 `
b1001111 E"
b1001111 M"
1"
#805
0"
#810
b101000 _
b101000 d
b101000 p
b1010000 :
b1010000 `
b1010000 E"
b1010000 M"
1"
#815
0"
#820
b1010001 :
b1010001 `
b1010001 E"
b1010001 M"
1"
#825
0"
#830
b101001 _
b101001 d
b101001 p
b1010010 :
b1010010 `
b1010010 E"
b1010010 M"
1"
#835
0"
#840
b1010011 :
b1010011 `
b1010011 E"
b1010011 M"
1"
#845
0"
#850
b101010 _
b101010 d
b101010 p
b1010100 :
b1010100 `
b1010100 E"
b1010100 M"
1"
#855
0"
#860
b1010101 :
b1010101 `
b1010101 E"
b1010101 M"
1"
#865
0"
#870
b101011 _
b101011 d
b101011 p
b1010110 :
b1010110 `
b1010110 E"
b1010110 M"
1"
#875
0"
#880
b1010111 :
b1010111 `
b1010111 E"
b1010111 M"
1"
#885
0"
#890
b101100 _
b101100 d
b101100 p
b1011000 :
b1011000 `
b1011000 E"
b1011000 M"
1"
#895
0"
#900
b1011001 :
b1011001 `
b1011001 E"
b1011001 M"
1"
#905
0"
#910
b101101 _
b101101 d
b101101 p
b1011010 :
b1011010 `
b1011010 E"
b1011010 M"
1"
#915
0"
#920
b1011011 :
b1011011 `
b1011011 E"
b1011011 M"
1"
#925
0"
#930
b101110 _
b101110 d
b101110 p
b1011100 :
b1011100 `
b1011100 E"
b1011100 M"
1"
#935
0"
#940
b1011101 :
b1011101 `
b1011101 E"
b1011101 M"
1"
#945
0"
#950
b101111 _
b101111 d
b101111 p
b1011110 :
b1011110 `
b1011110 E"
b1011110 M"
1"
#955
0"
#960
b1011111 :
b1011111 `
b1011111 E"
b1011111 M"
1"
#965
0"
#970
b110000 _
b110000 d
b110000 p
b1100000 :
b1100000 `
b1100000 E"
b1100000 M"
1"
#975
0"
#980
b1100001 :
b1100001 `
b1100001 E"
b1100001 M"
1"
#985
0"
#990
b110001 _
b110001 d
b110001 p
b1100010 :
b1100010 `
b1100010 E"
b1100010 M"
1"
#995
0"
#1000
b1100011 :
b1100011 `
b1100011 E"
b1100011 M"
1"
#1005
0"
#1010
b110010 _
b110010 d
b110010 p
b1100100 :
b1100100 `
b1100100 E"
b1100100 M"
1"
#1015
0"
#1020
b1100101 :
b1100101 `
b1100101 E"
b1100101 M"
1"
#1025
0"
#1030
b110011 _
b110011 d
b110011 p
b1100110 :
b1100110 `
b1100110 E"
b1100110 M"
1"
#1035
0"
#1040
b1100111 :
b1100111 `
b1100111 E"
b1100111 M"
1"
#1045
0"
#1050
b110100 _
b110100 d
b110100 p
b1101000 :
b1101000 `
b1101000 E"
b1101000 M"
1"
#1055
0"
#1060
b1101001 :
b1101001 `
b1101001 E"
b1101001 M"
1"
#1065
0"
#1070
b110101 _
b110101 d
b110101 p
b1101010 :
b1101010 `
b1101010 E"
b1101010 M"
1"
#1075
0"
#1080
b1101011 :
b1101011 `
b1101011 E"
b1101011 M"
1"
#1085
0"
#1090
b110110 _
b110110 d
b110110 p
b1101100 :
b1101100 `
b1101100 E"
b1101100 M"
1"
#1095
0"
#1100
b1101101 :
b1101101 `
b1101101 E"
b1101101 M"
1"
#1105
0"
#1110
b110111 _
b110111 d
b110111 p
b1101110 :
b1101110 `
b1101110 E"
b1101110 M"
1"
#1115
0"
#1120
b1101111 :
b1101111 `
b1101111 E"
b1101111 M"
1"
#1125
0"
#1130
b111000 _
b111000 d
b111000 p
b1110000 :
b1110000 `
b1110000 E"
b1110000 M"
1"
#1135
0"
#1140
b1110001 :
b1110001 `
b1110001 E"
b1110001 M"
1"
#1145
0"
#1150
b111001 _
b111001 d
b111001 p
b1110010 :
b1110010 `
b1110010 E"
b1110010 M"
1"
#1155
0"
#1160
b1110011 :
b1110011 `
b1110011 E"
b1110011 M"
1"
#1165
0"
#1170
b111010 _
b111010 d
b111010 p
b1110100 :
b1110100 `
b1110100 E"
b1110100 M"
1"
#1175
0"
#1180
b1110101 :
b1110101 `
b1110101 E"
b1110101 M"
1"
#1185
0"
